%YAML 1.1
%TAG !u! tag:unity3d.com,2011:
--- !u!1011 &101100000
AvatarMask:
  m_ObjectHideFlags: 0
  m_PrefabParentObject: {fileID: 0}
  m_PrefabInternal: {fileID: 0}
  m_Name: YoonTorso
  m_Mask: 01000000010000000100000001000000010000000100000001000000010000000100000001000000010000000100000001000000
  m_Elements:
  - m_Path: 
    m_Weight: 1
  - m_Path: ctrl_Gun_main
    m_Weight: 1
  - m_Path: ctrl_Gun_main/ik_wrist_l_anim
    m_Weight: 1
  - m_Path: ctrl_Gun_main/ik_wrist_r_anim
    m_Weight: 1
  - m_Path: geo_gun
    m_Weight: 1
  - m_Path: import:Yoon_Finished:gloves1
    m_Weight: 1
  - m_Path: rig_grp
    m_Weight: 1
  - m_Path: rig_grp/driver_root
    m_Weight: 1
  - m_Path: rig_grp/driver_root/driver_pelvis
    m_Weight: 1
  - m_Path: rig_grp/driver_root/driver_pelvis/driver_spine_01
    m_Weight: 1
  - m_Path: rig_grp/driver_root/driver_pelvis/driver_spine_01/driver_spine_02
    m_Weight: 1
  - m_Path: rig_grp/driver_root/driver_pelvis/driver_spine_01/driver_spine_02/driver_spine_03
    m_Weight: 1
  - m_Path: rig_grp/driver_root/driver_pelvis/driver_spine_01/driver_spine_02/driver_spine_03/driver_clavicle_l
    m_Weight: 1
  - m_Path: rig_grp/driver_root/driver_pelvis/driver_spine_01/driver_spine_02/driver_spine_03/driver_clavicle_l/driver_upperarm_l
    m_Weight: 1
  - m_Path: rig_grp/driver_root/driver_pelvis/driver_spine_01/driver_spine_02/driver_spine_03/driver_clavicle_l/driver_upperarm_l/driver_lowerarm_l
    m_Weight: 1
  - m_Path: rig_grp/driver_root/driver_pelvis/driver_spine_01/driver_spine_02/driver_spine_03/driver_clavicle_l/driver_upperarm_l/driver_lowerarm_l/driver_hand_l
    m_Weight: 1
  - m_Path: rig_grp/driver_root/driver_pelvis/driver_spine_01/driver_spine_02/driver_spine_03/driver_clavicle_l/driver_upperarm_l/driver_lowerarm_l/driver_hand_l/driver_middle_01_l
    m_Weight: 1
  - m_Path: rig_grp/driver_root/driver_pelvis/driver_spine_01/driver_spine_02/driver_spine_03/driver_clavicle_l/driver_upperarm_l/driver_lowerarm_l/driver_hand_l/driver_middle_01_l/driver_middle_02_l
    m_Weight: 1
  - m_Path: rig_grp/driver_root/driver_pelvis/driver_spine_01/driver_spine_02/driver_spine_03/driver_clavicle_l/driver_upperarm_l/driver_lowerarm_l/driver_hand_l/driver_middle_01_l/driver_middle_02_l/driver_middle_03_l
    m_Weight: 1
  - m_Path: rig_grp/driver_root/driver_pelvis/driver_spine_01/driver_spine_02/driver_spine_03/driver_clavicle_l/driver_upperarm_l/driver_lowerarm_l/driver_hand_l/driver_thumb_01_l
    m_Weight: 1
  - m_Path: rig_grp/driver_root/driver_pelvis/driver_spine_01/driver_spine_02/driver_spine_03/driver_clavicle_l/driver_upperarm_l/driver_lowerarm_l/driver_hand_l/driver_thumb_01_l/driver_thumb_02_l
    m_Weight: 1
  - m_Path: rig_grp/driver_root/driver_pelvis/driver_spine_01/driver_spine_02/driver_spine_03/driver_clavicle_l/driver_upperarm_l/driver_lowerarm_l/driver_hand_l/driver_thumb_01_l/driver_thumb_02_l/driver_thumb_03_l
    m_Weight: 1
  - m_Path: rig_grp/driver_root/driver_pelvis/driver_spine_01/driver_spine_02/driver_spine_03/driver_clavicle_l/driver_upperarm_l/driver_lowerarm_l/driver_lowerarm_twist_01_l
    m_Weight: 1
  - m_Path: rig_grp/driver_root/driver_pelvis/driver_spine_01/driver_spine_02/driver_spine_03/driver_clavicle_l/driver_upperarm_l/driver_upperarm_twist_01_l
    m_Weight: 1
  - m_Path: rig_grp/driver_root/driver_pelvis/driver_spine_01/driver_spine_02/driver_spine_03/driver_clavicle_r
    m_Weight: 1
  - m_Path: rig_grp/driver_root/driver_pelvis/driver_spine_01/driver_spine_02/driver_spine_03/driver_clavicle_r/driver_upperarm_r
    m_Weight: 1
  - m_Path: rig_grp/driver_root/driver_pelvis/driver_spine_01/driver_spine_02/driver_spine_03/driver_clavicle_r/driver_upperarm_r/driver_lowerarm_r
    m_Weight: 1
  - m_Path: rig_grp/driver_root/driver_pelvis/driver_spine_01/driver_spine_02/driver_spine_03/driver_clavicle_r/driver_upperarm_r/driver_lowerarm_r/driver_hand_r
    m_Weight: 1
  - m_Path: rig_grp/driver_root/driver_pelvis/driver_spine_01/driver_spine_02/driver_spine_03/driver_clavicle_r/driver_upperarm_r/driver_lowerarm_r/driver_hand_r/driver_middle_01_r
    m_Weight: 1
  - m_Path: rig_grp/driver_root/driver_pelvis/driver_spine_01/driver_spine_02/driver_spine_03/driver_clavicle_r/driver_upperarm_r/driver_lowerarm_r/driver_hand_r/driver_middle_01_r/driver_middle_02_r
    m_Weight: 1
  - m_Path: rig_grp/driver_root/driver_pelvis/driver_spine_01/driver_spine_02/driver_spine_03/driver_clavicle_r/driver_upperarm_r/driver_lowerarm_r/driver_hand_r/driver_middle_01_r/driver_middle_02_r/driver_middle_03_r
    m_Weight: 1
  - m_Path: rig_grp/driver_root/driver_pelvis/driver_spine_01/driver_spine_02/driver_spine_03/driver_clavicle_r/driver_upperarm_r/driver_lowerarm_r/driver_hand_r/driver_thumb_01_r
    m_Weight: 1
  - m_Path: rig_grp/driver_root/driver_pelvis/driver_spine_01/driver_spine_02/driver_spine_03/driver_clavicle_r/driver_upperarm_r/driver_lowerarm_r/driver_hand_r/driver_thumb_01_r/driver_thumb_02_r
    m_Weight: 1
  - m_Path: rig_grp/driver_root/driver_pelvis/driver_spine_01/driver_spine_02/driver_spine_03/driver_clavicle_r/driver_upperarm_r/driver_lowerarm_r/driver_hand_r/driver_thumb_01_r/driver_thumb_02_r/driver_thumb_03_r
    m_Weight: 1
  - m_Path: rig_grp/driver_root/driver_pelvis/driver_spine_01/driver_spine_02/driver_spine_03/driver_clavicle_r/driver_upperarm_r/driver_lowerarm_r/driver_lowerarm_twist_01_r
    m_Weight: 1
  - m_Path: rig_grp/driver_root/driver_pelvis/driver_spine_01/driver_spine_02/driver_spine_03/driver_clavicle_r/driver_upperarm_r/driver_upperarm_twist_01_r
    m_Weight: 1
  - m_Path: rig_grp/driver_root/driver_pelvis/driver_spine_01/driver_spine_02/driver_spine_03/driver_neck_01
    m_Weight: 1
  - m_Path: rig_grp/driver_root/driver_pelvis/driver_spine_01/driver_spine_02/driver_spine_03/driver_neck_01/driver_head
    m_Weight: 1
  - m_Path: rig_grp/driver_root/driver_pelvis/driver_thigh_l
    m_Weight: 1
  - m_Path: rig_grp/driver_root/driver_pelvis/driver_thigh_l/driver_calf_l
    m_Weight: 1
  - m_Path: rig_grp/driver_root/driver_pelvis/driver_thigh_l/driver_calf_l/driver_calf_twist_01_l
    m_Weight: 1
  - m_Path: rig_grp/driver_root/driver_pelvis/driver_thigh_l/driver_calf_l/driver_foot_l
    m_Weight: 1
  - m_Path: rig_grp/driver_root/driver_pelvis/driver_thigh_l/driver_thigh_twist_01_l
    m_Weight: 1
  - m_Path: rig_grp/driver_root/driver_pelvis/driver_thigh_r
    m_Weight: 1
  - m_Path: rig_grp/driver_root/driver_pelvis/driver_thigh_r/driver_calf_r
    m_Weight: 1
  - m_Path: rig_grp/driver_root/driver_pelvis/driver_thigh_r/driver_calf_r/driver_calf_twist_01_r
    m_Weight: 1
  - m_Path: rig_grp/driver_root/driver_pelvis/driver_thigh_r/driver_calf_r/driver_foot_r
    m_Weight: 1
  - m_Path: rig_grp/driver_root/driver_pelvis/driver_thigh_r/driver_thigh_twist_01_r
    m_Weight: 1
  - m_Path: rig_grp/master_anim_space_switcher_follow
    m_Weight: 1
  - m_Path: rig_grp/master_anim_space_switcher_follow/master_anim_space_switcher
    m_Weight: 1
  - m_Path: rig_grp/master_anim_space_switcher_follow/master_anim_space_switcher/master_anim
    m_Weight: 1
  - m_Path: rig_grp/master_anim_space_switcher_follow/master_anim_space_switcher/master_anim/offset_anim
    m_Weight: 1
  - m_Path: rig_grp/master_anim_space_switcher_follow/master_anim_space_switcher/master_anim/offset_anim/ctrl_rig
    m_Weight: 1
  - m_Path: rig_grp/master_anim_space_switcher_follow/master_anim_space_switcher/master_anim/offset_anim/ctrl_rig/arm_sys_grp
    m_Weight: 1
  - m_Path: rig_grp/master_anim_space_switcher_follow/master_anim_space_switcher/master_anim/offset_anim/ctrl_rig/arm_sys_grp/arm_rig_master_grp_l
    m_Weight: 1
  - m_Path: rig_grp/master_anim_space_switcher_follow/master_anim_space_switcher/master_anim/offset_anim/ctrl_rig/arm_sys_grp/arm_rig_master_grp_l/fk_clavicle_l_anim_grp
    m_Weight: 1
  - m_Path: rig_grp/master_anim_space_switcher_follow/master_anim_space_switcher/master_anim/offset_anim/ctrl_rig/arm_sys_grp/arm_rig_master_grp_l/fk_clavicle_l_anim_grp/fk_clavicle_l_anim
    m_Weight: 1
  - m_Path: rig_grp/master_anim_space_switcher_follow/master_anim_space_switcher/master_anim/offset_anim/ctrl_rig/arm_sys_grp/arm_rig_master_grp_l/fk_orient_master_loc_l
    m_Weight: 1
  - m_Path: rig_grp/master_anim_space_switcher_follow/master_anim_space_switcher/master_anim/offset_anim/ctrl_rig/arm_sys_grp/arm_rig_master_grp_l/fk_orient_master_loc_l/fk_arm_l_anim_grp
    m_Weight: 1
  - m_Path: rig_grp/master_anim_space_switcher_follow/master_anim_space_switcher/master_anim/offset_anim/ctrl_rig/arm_sys_grp/arm_rig_master_grp_l/fk_orient_master_loc_l/fk_arm_l_anim_grp/fk_arm_l_anim
    m_Weight: 1
  - m_Path: rig_grp/master_anim_space_switcher_follow/master_anim_space_switcher/master_anim/offset_anim/ctrl_rig/arm_sys_grp/arm_rig_master_grp_l/fk_orient_master_loc_l/fk_arm_l_anim_grp/fk_arm_l_anim/arm_orient_loc_grp_l
    m_Weight: 1
  - m_Path: rig_grp/master_anim_space_switcher_follow/master_anim_space_switcher/master_anim/offset_anim/ctrl_rig/arm_sys_grp/arm_rig_master_grp_l/fk_orient_master_loc_l/fk_arm_l_anim_grp/fk_arm_l_anim/arm_orient_loc_grp_l/arm_orient_loc_l
    m_Weight: 1
  - m_Path: rig_grp/master_anim_space_switcher_follow/master_anim_space_switcher/master_anim/offset_anim/ctrl_rig/arm_sys_grp/arm_rig_master_grp_l/fk_orient_master_loc_l/fk_arm_l_anim_grp/fk_arm_l_anim/fk_elbow_l_anim_grp
    m_Weight: 1
  - m_Path: rig_grp/master_anim_space_switcher_follow/master_anim_space_switcher/master_anim/offset_anim/ctrl_rig/arm_sys_grp/arm_rig_master_grp_l/fk_orient_master_loc_l/fk_arm_l_anim_grp/fk_arm_l_anim/fk_elbow_l_anim_grp/fk_elbow_l_anim
    m_Weight: 1
  - m_Path: rig_grp/master_anim_space_switcher_follow/master_anim_space_switcher/master_anim/offset_anim/ctrl_rig/arm_sys_grp/arm_rig_master_grp_l/fk_orient_master_loc_l/fk_arm_l_anim_grp/fk_arm_l_anim/fk_elbow_l_anim_grp/fk_elbow_l_anim/fk_wrist_l_anim_grp
    m_Weight: 1
  - m_Path: rig_grp/master_anim_space_switcher_follow/master_anim_space_switcher/master_anim/offset_anim/ctrl_rig/arm_sys_grp/arm_rig_master_grp_l/fk_orient_master_loc_l/fk_arm_l_anim_grp/fk_arm_l_anim/fk_elbow_l_anim_grp/fk_elbow_l_anim/fk_wrist_l_anim_grp/fk_wrist_l_anim
    m_Weight: 1
  - m_Path: rig_grp/master_anim_space_switcher_follow/master_anim_space_switcher/master_anim/offset_anim/ctrl_rig/arm_sys_grp/arm_rig_master_grp_l/ik_arm_base_grp_l
    m_Weight: 1
  - m_Path: rig_grp/master_anim_space_switcher_follow/master_anim_space_switcher/master_anim/offset_anim/ctrl_rig/arm_sys_grp/arm_rig_master_grp_l/ik_arm_end_grp_l
    m_Weight: 1
  - m_Path: rig_grp/master_anim_space_switcher_follow/master_anim_space_switcher/master_anim/offset_anim/ctrl_rig/arm_sys_grp/arm_rig_master_grp_l/joints_l_grp
    m_Weight: 1
  - m_Path: rig_grp/master_anim_space_switcher_follow/master_anim_space_switcher/master_anim/offset_anim/ctrl_rig/arm_sys_grp/arm_rig_master_grp_l/joints_l_grp/fk_clavicle_l
    m_Weight: 1
  - m_Path: rig_grp/master_anim_space_switcher_follow/master_anim_space_switcher/master_anim/offset_anim/ctrl_rig/arm_sys_grp/arm_rig_master_grp_l/joints_l_grp/ik_clavicle_l
    m_Weight: 1
  - m_Path: rig_grp/master_anim_space_switcher_follow/master_anim_space_switcher/master_anim/offset_anim/ctrl_rig/arm_sys_grp/arm_rig_master_grp_l/joints_l_grp/rig_clavicle_l
    m_Weight: 1
  - m_Path: rig_grp/master_anim_space_switcher_follow/master_anim_space_switcher/master_anim/offset_anim/ctrl_rig/arm_sys_grp/arm_rig_master_grp_l/joints_l_grp/rig_clavicle_l/fk_upperarm_l
    m_Weight: 1
  - m_Path: rig_grp/master_anim_space_switcher_follow/master_anim_space_switcher/master_anim/offset_anim/ctrl_rig/arm_sys_grp/arm_rig_master_grp_l/joints_l_grp/rig_clavicle_l/fk_upperarm_l/fk_lowerarm_l
    m_Weight: 1
  - m_Path: rig_grp/master_anim_space_switcher_follow/master_anim_space_switcher/master_anim/offset_anim/ctrl_rig/arm_sys_grp/arm_rig_master_grp_l/joints_l_grp/rig_clavicle_l/fk_upperarm_l/fk_lowerarm_l/fk_hand_l
    m_Weight: 1
  - m_Path: rig_grp/master_anim_space_switcher_follow/master_anim_space_switcher/master_anim/offset_anim/ctrl_rig/arm_sys_grp/arm_rig_master_grp_l/joints_l_grp/rig_clavicle_l/ik_upperarm_l
    m_Weight: 1
  - m_Path: rig_grp/master_anim_space_switcher_follow/master_anim_space_switcher/master_anim/offset_anim/ctrl_rig/arm_sys_grp/arm_rig_master_grp_l/joints_l_grp/rig_clavicle_l/ik_upperarm_l/ik_lowerarm_l
    m_Weight: 1
  - m_Path: rig_grp/master_anim_space_switcher_follow/master_anim_space_switcher/master_anim/offset_anim/ctrl_rig/arm_sys_grp/arm_rig_master_grp_l/joints_l_grp/rig_clavicle_l/ik_upperarm_l/ik_lowerarm_l/ik_hand_l
    m_Weight: 1
  - m_Path: rig_grp/master_anim_space_switcher_follow/master_anim_space_switcher/master_anim/offset_anim/ctrl_rig/arm_sys_grp/arm_rig_master_grp_r
    m_Weight: 1
  - m_Path: rig_grp/master_anim_space_switcher_follow/master_anim_space_switcher/master_anim/offset_anim/ctrl_rig/arm_sys_grp/arm_rig_master_grp_r/fk_clavicle_r_anim_grp
    m_Weight: 1
  - m_Path: rig_grp/master_anim_space_switcher_follow/master_anim_space_switcher/master_anim/offset_anim/ctrl_rig/arm_sys_grp/arm_rig_master_grp_r/fk_clavicle_r_anim_grp/fk_clavicle_r_anim
    m_Weight: 1
  - m_Path: rig_grp/master_anim_space_switcher_follow/master_anim_space_switcher/master_anim/offset_anim/ctrl_rig/arm_sys_grp/arm_rig_master_grp_r/fk_orient_master_loc_r
    m_Weight: 1
  - m_Path: rig_grp/master_anim_space_switcher_follow/master_anim_space_switcher/master_anim/offset_anim/ctrl_rig/arm_sys_grp/arm_rig_master_grp_r/fk_orient_master_loc_r/fk_arm_r_anim_grp
    m_Weight: 1
  - m_Path: rig_grp/master_anim_space_switcher_follow/master_anim_space_switcher/master_anim/offset_anim/ctrl_rig/arm_sys_grp/arm_rig_master_grp_r/fk_orient_master_loc_r/fk_arm_r_anim_grp/fk_arm_r_anim
    m_Weight: 1
  - m_Path: rig_grp/master_anim_space_switcher_follow/master_anim_space_switcher/master_anim/offset_anim/ctrl_rig/arm_sys_grp/arm_rig_master_grp_r/fk_orient_master_loc_r/fk_arm_r_anim_grp/fk_arm_r_anim/arm_orient_loc_grp_r
    m_Weight: 1
  - m_Path: rig_grp/master_anim_space_switcher_follow/master_anim_space_switcher/master_anim/offset_anim/ctrl_rig/arm_sys_grp/arm_rig_master_grp_r/fk_orient_master_loc_r/fk_arm_r_anim_grp/fk_arm_r_anim/arm_orient_loc_grp_r/arm_orient_loc_r
    m_Weight: 1
  - m_Path: rig_grp/master_anim_space_switcher_follow/master_anim_space_switcher/master_anim/offset_anim/ctrl_rig/arm_sys_grp/arm_rig_master_grp_r/fk_orient_master_loc_r/fk_arm_r_anim_grp/fk_arm_r_anim/fk_elbow_r_anim_grp
    m_Weight: 1
  - m_Path: rig_grp/master_anim_space_switcher_follow/master_anim_space_switcher/master_anim/offset_anim/ctrl_rig/arm_sys_grp/arm_rig_master_grp_r/fk_orient_master_loc_r/fk_arm_r_anim_grp/fk_arm_r_anim/fk_elbow_r_anim_grp/fk_elbow_r_anim
    m_Weight: 1
  - m_Path: rig_grp/master_anim_space_switcher_follow/master_anim_space_switcher/master_anim/offset_anim/ctrl_rig/arm_sys_grp/arm_rig_master_grp_r/fk_orient_master_loc_r/fk_arm_r_anim_grp/fk_arm_r_anim/fk_elbow_r_anim_grp/fk_elbow_r_anim/fk_wrist_r_anim_grp
    m_Weight: 1
  - m_Path: rig_grp/master_anim_space_switcher_follow/master_anim_space_switcher/master_anim/offset_anim/ctrl_rig/arm_sys_grp/arm_rig_master_grp_r/fk_orient_master_loc_r/fk_arm_r_anim_grp/fk_arm_r_anim/fk_elbow_r_anim_grp/fk_elbow_r_anim/fk_wrist_r_anim_grp/fk_wrist_r_anim
    m_Weight: 1
  - m_Path: rig_grp/master_anim_space_switcher_follow/master_anim_space_switcher/master_anim/offset_anim/ctrl_rig/arm_sys_grp/arm_rig_master_grp_r/ik_arm_base_grp_r
    m_Weight: 1
  - m_Path: rig_grp/master_anim_space_switcher_follow/master_anim_space_switcher/master_anim/offset_anim/ctrl_rig/arm_sys_grp/arm_rig_master_grp_r/ik_arm_end_grp_r
    m_Weight: 1
  - m_Path: rig_grp/master_anim_space_switcher_follow/master_anim_space_switcher/master_anim/offset_anim/ctrl_rig/arm_sys_grp/arm_rig_master_grp_r/joints_r_grp
    m_Weight: 1
  - m_Path: rig_grp/master_anim_space_switcher_follow/master_anim_space_switcher/master_anim/offset_anim/ctrl_rig/arm_sys_grp/arm_rig_master_grp_r/joints_r_grp/fk_clavicle_r
    m_Weight: 1
  - m_Path: rig_grp/master_anim_space_switcher_follow/master_anim_space_switcher/master_anim/offset_anim/ctrl_rig/arm_sys_grp/arm_rig_master_grp_r/joints_r_grp/ik_clavicle_r
    m_Weight: 1
  - m_Path: rig_grp/master_anim_space_switcher_follow/master_anim_space_switcher/master_anim/offset_anim/ctrl_rig/arm_sys_grp/arm_rig_master_grp_r/joints_r_grp/rig_clavicle_r
    m_Weight: 1
  - m_Path: rig_grp/master_anim_space_switcher_follow/master_anim_space_switcher/master_anim/offset_anim/ctrl_rig/arm_sys_grp/arm_rig_master_grp_r/joints_r_grp/rig_clavicle_r/fk_upperarm_r
    m_Weight: 1
  - m_Path: rig_grp/master_anim_space_switcher_follow/master_anim_space_switcher/master_anim/offset_anim/ctrl_rig/arm_sys_grp/arm_rig_master_grp_r/joints_r_grp/rig_clavicle_r/fk_upperarm_r/fk_lowerarm_r
    m_Weight: 1
  - m_Path: rig_grp/master_anim_space_switcher_follow/master_anim_space_switcher/master_anim/offset_anim/ctrl_rig/arm_sys_grp/arm_rig_master_grp_r/joints_r_grp/rig_clavicle_r/fk_upperarm_r/fk_lowerarm_r/fk_hand_r
    m_Weight: 1
  - m_Path: rig_grp/master_anim_space_switcher_follow/master_anim_space_switcher/master_anim/offset_anim/ctrl_rig/arm_sys_grp/arm_rig_master_grp_r/joints_r_grp/rig_clavicle_r/ik_upperarm_r
    m_Weight: 1
  - m_Path: rig_grp/master_anim_space_switcher_follow/master_anim_space_switcher/master_anim/offset_anim/ctrl_rig/arm_sys_grp/arm_rig_master_grp_r/joints_r_grp/rig_clavicle_r/ik_upperarm_r/ik_lowerarm_r
    m_Weight: 1
  - m_Path: rig_grp/master_anim_space_switcher_follow/master_anim_space_switcher/master_anim/offset_anim/ctrl_rig/arm_sys_grp/arm_rig_master_grp_r/joints_r_grp/rig_clavicle_r/ik_upperarm_r/ik_lowerarm_r/ik_hand_r
    m_Weight: 1
  - m_Path: rig_grp/master_anim_space_switcher_follow/master_anim_space_switcher/master_anim/offset_anim/ctrl_rig/arm_sys_grp/lowerarm_l_roll_grp
    m_Weight: 1
  - m_Path: rig_grp/master_anim_space_switcher_follow/master_anim_space_switcher/master_anim/offset_anim/ctrl_rig/arm_sys_grp/lowerarm_l_roll_grp/lowerarm_l_twist_joint
    m_Weight: 1
  - m_Path: rig_grp/master_anim_space_switcher_follow/master_anim_space_switcher/master_anim/offset_anim/ctrl_rig/arm_sys_grp/lowerarm_l_roll_grp/lowerarm_l_twist_joint/lowerarm_l_twist_mod
    m_Weight: 1
  - m_Path: rig_grp/master_anim_space_switcher_follow/master_anim_space_switcher/master_anim/offset_anim/ctrl_rig/arm_sys_grp/lowerarm_l_roll_grp/lowerarm_l_twist_joint/lowerarm_l_twist_mod/lowerarm_l_twist_anim_grp
    m_Weight: 1
  - m_Path: rig_grp/master_anim_space_switcher_follow/master_anim_space_switcher/master_anim/offset_anim/ctrl_rig/arm_sys_grp/lowerarm_l_roll_grp/lowerarm_l_twist_joint/lowerarm_l_twist_mod/lowerarm_l_twist_anim_grp/lowerarm_l_twist_anim
    m_Weight: 1
  - m_Path: rig_grp/master_anim_space_switcher_follow/master_anim_space_switcher/master_anim/offset_anim/ctrl_rig/arm_sys_grp/lowerarm_r_roll_grp
    m_Weight: 1
  - m_Path: rig_grp/master_anim_space_switcher_follow/master_anim_space_switcher/master_anim/offset_anim/ctrl_rig/arm_sys_grp/lowerarm_r_roll_grp/lowerarm_r_twist_joint
    m_Weight: 1
  - m_Path: rig_grp/master_anim_space_switcher_follow/master_anim_space_switcher/master_anim/offset_anim/ctrl_rig/arm_sys_grp/lowerarm_r_roll_grp/lowerarm_r_twist_joint/lowerarm_r_twist_mod
    m_Weight: 1
  - m_Path: rig_grp/master_anim_space_switcher_follow/master_anim_space_switcher/master_anim/offset_anim/ctrl_rig/arm_sys_grp/lowerarm_r_roll_grp/lowerarm_r_twist_joint/lowerarm_r_twist_mod/lowerarm_r_twist_anim_grp
    m_Weight: 1
  - m_Path: rig_grp/master_anim_space_switcher_follow/master_anim_space_switcher/master_anim/offset_anim/ctrl_rig/arm_sys_grp/lowerarm_r_roll_grp/lowerarm_r_twist_joint/lowerarm_r_twist_mod/lowerarm_r_twist_anim_grp/lowerarm_r_twist_anim
    m_Weight: 1
  - m_Path: rig_grp/master_anim_space_switcher_follow/master_anim_space_switcher/master_anim/offset_anim/ctrl_rig/arm_sys_grp/upperarm_twist_grp_l
    m_Weight: 1
  - m_Path: rig_grp/master_anim_space_switcher_follow/master_anim_space_switcher/master_anim/offset_anim/ctrl_rig/arm_sys_grp/upperarm_twist_grp_l/upperarm_l_twist_anim_grp
    m_Weight: 1
  - m_Path: rig_grp/master_anim_space_switcher_follow/master_anim_space_switcher/master_anim/offset_anim/ctrl_rig/arm_sys_grp/upperarm_twist_grp_l/upperarm_l_twist_anim_grp/upperarm_l_twist_driven_grp
    m_Weight: 1
  - m_Path: rig_grp/master_anim_space_switcher_follow/master_anim_space_switcher/master_anim/offset_anim/ctrl_rig/arm_sys_grp/upperarm_twist_grp_l/upperarm_l_twist_anim_grp/upperarm_l_twist_driven_grp/upperarm_l_twist_anim
    m_Weight: 1
  - m_Path: rig_grp/master_anim_space_switcher_follow/master_anim_space_switcher/master_anim/offset_anim/ctrl_rig/arm_sys_grp/upperarm_twist_grp_r
    m_Weight: 1
  - m_Path: rig_grp/master_anim_space_switcher_follow/master_anim_space_switcher/master_anim/offset_anim/ctrl_rig/arm_sys_grp/upperarm_twist_grp_r/upperarm_r_twist_anim_grp
    m_Weight: 1
  - m_Path: rig_grp/master_anim_space_switcher_follow/master_anim_space_switcher/master_anim/offset_anim/ctrl_rig/arm_sys_grp/upperarm_twist_grp_r/upperarm_r_twist_anim_grp/upperarm_r_twist_driven_grp
    m_Weight: 1
  - m_Path: rig_grp/master_anim_space_switcher_follow/master_anim_space_switcher/master_anim/offset_anim/ctrl_rig/arm_sys_grp/upperarm_twist_grp_r/upperarm_r_twist_anim_grp/upperarm_r_twist_driven_grp/upperarm_r_twist_anim
    m_Weight: 1
  - m_Path: rig_grp/master_anim_space_switcher_follow/master_anim_space_switcher/master_anim/offset_anim/ctrl_rig/body_grp
    m_Weight: 1
  - m_Path: rig_grp/master_anim_space_switcher_follow/master_anim_space_switcher/master_anim/offset_anim/ctrl_rig/body_grp/body_anim_space_switcher_follow
    m_Weight: 1
  - m_Path: rig_grp/master_anim_space_switcher_follow/master_anim_space_switcher/master_anim/offset_anim/ctrl_rig/body_grp/body_anim_space_switcher_follow/body_anim_space_switcher
    m_Weight: 1
  - m_Path: rig_grp/master_anim_space_switcher_follow/master_anim_space_switcher/master_anim/offset_anim/ctrl_rig/body_grp/body_anim_space_switcher_follow/body_anim_space_switcher/body_anim_grp
    m_Weight: 1
  - m_Path: rig_grp/master_anim_space_switcher_follow/master_anim_space_switcher/master_anim/offset_anim/ctrl_rig/body_grp/body_anim_space_switcher_follow/body_anim_space_switcher/body_anim_grp/body_anim
    m_Weight: 1
  - m_Path: rig_grp/master_anim_space_switcher_follow/master_anim_space_switcher/master_anim/offset_anim/ctrl_rig/body_grp/body_anim_space_switcher_follow/body_anim_space_switcher/body_anim_grp/body_anim/auto_hip_world
    m_Weight: 1
  - m_Path: rig_grp/master_anim_space_switcher_follow/master_anim_space_switcher/master_anim/offset_anim/ctrl_rig/body_grp/body_anim_space_switcher_follow/body_anim_space_switcher/body_anim_grp/body_anim/auto_hip_world/hip_anim
    m_Weight: 1
  - m_Path: rig_grp/master_anim_space_switcher_follow/master_anim_space_switcher/master_anim/offset_anim/ctrl_rig/body_grp/body_anim_space_switcher_follow/body_anim_space_switcher/body_anim_grp/body_anim/auto_hip_world/hip_anim/auto_hip_yz_rot_solver
    m_Weight: 1
  - m_Path: rig_grp/master_anim_space_switcher_follow/master_anim_space_switcher/master_anim/offset_anim/ctrl_rig/body_grp/body_anim_space_switcher_follow/body_anim_space_switcher/body_anim_grp/body_anim/auto_hip_world/hip_anim/auto_hip_yz_rot_solver/auto_hip_on_off
    m_Weight: 1
  - m_Path: rig_grp/master_anim_space_switcher_follow/master_anim_space_switcher/master_anim/offset_anim/ctrl_rig/body_grp/body_anim_space_switcher_follow/body_anim_space_switcher/body_anim_grp/body_anim/auto_hip_world/hip_anim/auto_hip_yz_rot_solver/auto_hip_on_off/hip_ctrl_redirect
    m_Weight: 1
  - m_Path: rig_grp/master_anim_space_switcher_follow/master_anim_space_switcher/master_anim/offset_anim/ctrl_rig/body_grp/body_anim_space_switcher_follow/body_anim_space_switcher/body_anim_grp/body_anim/auto_hip_world/hip_anim/auto_hip_yz_rot_solver/auto_hip_on_off/hip_ctrl_redirect/spine_splineIK_bottom_joint
    m_Weight: 1
  - m_Path: rig_grp/master_anim_space_switcher_follow/master_anim_space_switcher/master_anim/offset_anim/ctrl_rig/body_grp/body_anim_space_switcher_follow/body_anim_space_switcher/body_anim_grp/body_anim/chest_ik_anim_space_switcher_follow
    m_Weight: 1
  - m_Path: rig_grp/master_anim_space_switcher_follow/master_anim_space_switcher/master_anim/offset_anim/ctrl_rig/body_grp/body_anim_space_switcher_follow/body_anim_space_switcher/body_anim_grp/body_anim/chest_ik_anim_space_switcher_follow/chest_ik_anim_space_switcher
    m_Weight: 1
  - m_Path: rig_grp/master_anim_space_switcher_follow/master_anim_space_switcher/master_anim/offset_anim/ctrl_rig/body_grp/body_anim_space_switcher_follow/body_anim_space_switcher/body_anim_grp/body_anim/chest_ik_anim_space_switcher_follow/chest_ik_anim_space_switcher/chest_ik_anim_grp
    m_Weight: 1
  - m_Path: rig_grp/master_anim_space_switcher_follow/master_anim_space_switcher/master_anim/offset_anim/ctrl_rig/body_grp/body_anim_space_switcher_follow/body_anim_space_switcher/body_anim_grp/body_anim/chest_ik_anim_space_switcher_follow/chest_ik_anim_space_switcher/chest_ik_anim_grp/chest_ik_anim_driver_grp
    m_Weight: 1
  - m_Path: rig_grp/master_anim_space_switcher_follow/master_anim_space_switcher/master_anim/offset_anim/ctrl_rig/body_grp/body_anim_space_switcher_follow/body_anim_space_switcher/body_anim_grp/body_anim/chest_ik_anim_space_switcher_follow/chest_ik_anim_space_switcher/chest_ik_anim_grp/chest_ik_anim_driver_grp/chest_ik_anim
    m_Weight: 1
  - m_Path: rig_grp/master_anim_space_switcher_follow/master_anim_space_switcher/master_anim/offset_anim/ctrl_rig/body_grp/body_anim_space_switcher_follow/body_anim_space_switcher/body_anim_grp/body_anim/chest_ik_anim_space_switcher_follow/chest_ik_anim_space_switcher/chest_ik_anim_grp/chest_ik_anim_driver_grp/chest_ik_anim/spine_splineIK_top_joint
    m_Weight: 1
  - m_Path: rig_grp/master_anim_space_switcher_follow/master_anim_space_switcher/master_anim/offset_anim/ctrl_rig/body_grp/body_anim_space_switcher_follow/body_anim_space_switcher/body_anim_grp/body_anim/mid_ik_anim_grp
    m_Weight: 1
  - m_Path: rig_grp/master_anim_space_switcher_follow/master_anim_space_switcher/master_anim/offset_anim/ctrl_rig/body_grp/body_anim_space_switcher_follow/body_anim_space_switcher/body_anim_grp/body_anim/mid_ik_anim_grp/mid_ik_anim_translate_driver_grp
    m_Weight: 1
  - m_Path: rig_grp/master_anim_space_switcher_follow/master_anim_space_switcher/master_anim/offset_anim/ctrl_rig/body_grp/body_anim_space_switcher_follow/body_anim_space_switcher/body_anim_grp/body_anim/mid_ik_anim_grp/mid_ik_anim_translate_driver_grp/mid_ik_anim_driver_grp
    m_Weight: 1
  - m_Path: rig_grp/master_anim_space_switcher_follow/master_anim_space_switcher/master_anim/offset_anim/ctrl_rig/body_grp/body_anim_space_switcher_follow/body_anim_space_switcher/body_anim_grp/body_anim/mid_ik_anim_grp/mid_ik_anim_translate_driver_grp/mid_ik_anim_driver_grp/mid_ik_anim
    m_Weight: 1
  - m_Path: rig_grp/master_anim_space_switcher_follow/master_anim_space_switcher/master_anim/offset_anim/ctrl_rig/body_grp/body_anim_space_switcher_follow/body_anim_space_switcher/body_anim_grp/body_anim/mid_ik_anim_grp/mid_ik_anim_translate_driver_grp/mid_ik_anim_driver_grp/mid_ik_anim/spine_splineIK_mid_joint
    m_Weight: 1
  - m_Path: rig_grp/master_anim_space_switcher_follow/master_anim_space_switcher/master_anim/offset_anim/ctrl_rig/body_grp/body_anim_space_switcher_follow/body_anim_space_switcher/body_anim_grp/body_anim/spine_01_space_switcher_follow
    m_Weight: 1
  - m_Path: rig_grp/master_anim_space_switcher_follow/master_anim_space_switcher/master_anim/offset_anim/ctrl_rig/body_grp/body_anim_space_switcher_follow/body_anim_space_switcher/body_anim_grp/body_anim/spine_01_space_switcher_follow/spine_01_space_switcher
    m_Weight: 1
  - m_Path: rig_grp/master_anim_space_switcher_follow/master_anim_space_switcher/master_anim/offset_anim/ctrl_rig/body_grp/body_anim_space_switcher_follow/body_anim_space_switcher/body_anim_grp/body_anim/spine_01_space_switcher_follow/spine_01_space_switcher/spine_01_anim_grp
    m_Weight: 1
  - m_Path: rig_grp/master_anim_space_switcher_follow/master_anim_space_switcher/master_anim/offset_anim/ctrl_rig/body_grp/body_anim_space_switcher_follow/body_anim_space_switcher/body_anim_grp/body_anim/spine_01_space_switcher_follow/spine_01_space_switcher/spine_01_anim_grp/spine_01_anim_offset_grp
    m_Weight: 1
  - m_Path: rig_grp/master_anim_space_switcher_follow/master_anim_space_switcher/master_anim/offset_anim/ctrl_rig/body_grp/body_anim_space_switcher_follow/body_anim_space_switcher/body_anim_grp/body_anim/spine_01_space_switcher_follow/spine_01_space_switcher/spine_01_anim_grp/spine_01_anim_offset_grp/spine_01_anim
    m_Weight: 1
  - m_Path: rig_grp/master_anim_space_switcher_follow/master_anim_space_switcher/master_anim/offset_anim/ctrl_rig/body_grp/body_anim_space_switcher_follow/body_anim_space_switcher/body_anim_grp/body_anim/spine_01_space_switcher_follow/spine_01_space_switcher/spine_01_anim_grp/spine_01_anim_offset_grp/spine_01_anim/spine_02_anim_grp
    m_Weight: 1
  - m_Path: rig_grp/master_anim_space_switcher_follow/master_anim_space_switcher/master_anim/offset_anim/ctrl_rig/body_grp/body_anim_space_switcher_follow/body_anim_space_switcher/body_anim_grp/body_anim/spine_01_space_switcher_follow/spine_01_space_switcher/spine_01_anim_grp/spine_01_anim_offset_grp/spine_01_anim/spine_02_anim_grp/spine_02_anim_offset_grp
    m_Weight: 1
  - m_Path: rig_grp/master_anim_space_switcher_follow/master_anim_space_switcher/master_anim/offset_anim/ctrl_rig/body_grp/body_anim_space_switcher_follow/body_anim_space_switcher/body_anim_grp/body_anim/spine_01_space_switcher_follow/spine_01_space_switcher/spine_01_anim_grp/spine_01_anim_offset_grp/spine_01_anim/spine_02_anim_grp/spine_02_anim_offset_grp/spine_02_anim
    m_Weight: 1
  - m_Path: rig_grp/master_anim_space_switcher_follow/master_anim_space_switcher/master_anim/offset_anim/ctrl_rig/body_grp/body_anim_space_switcher_follow/body_anim_space_switcher/body_anim_grp/body_anim/spine_01_space_switcher_follow/spine_01_space_switcher/spine_01_anim_grp/spine_01_anim_offset_grp/spine_01_anim/spine_02_anim_grp/spine_02_anim_offset_grp/spine_02_anim/spine_03_anim_grp
    m_Weight: 1
  - m_Path: rig_grp/master_anim_space_switcher_follow/master_anim_space_switcher/master_anim/offset_anim/ctrl_rig/body_grp/body_anim_space_switcher_follow/body_anim_space_switcher/body_anim_grp/body_anim/spine_01_space_switcher_follow/spine_01_space_switcher/spine_01_anim_grp/spine_01_anim_offset_grp/spine_01_anim/spine_02_anim_grp/spine_02_anim_offset_grp/spine_02_anim/spine_03_anim_grp/spine_03_anim_offset_grp
    m_Weight: 1
  - m_Path: rig_grp/master_anim_space_switcher_follow/master_anim_space_switcher/master_anim/offset_anim/ctrl_rig/body_grp/body_anim_space_switcher_follow/body_anim_space_switcher/body_anim_grp/body_anim/spine_01_space_switcher_follow/spine_01_space_switcher/spine_01_anim_grp/spine_01_anim_offset_grp/spine_01_anim/spine_02_anim_grp/spine_02_anim_offset_grp/spine_02_anim/spine_03_anim_grp/spine_03_anim_offset_grp/spine_03_anim
    m_Weight: 1
  - m_Path: rig_grp/master_anim_space_switcher_follow/master_anim_space_switcher/master_anim/offset_anim/ctrl_rig/body_grp/body_anim_space_switcher_follow/body_anim_space_switcher/body_anim_grp/body_anim/spineIK_twist_grp
    m_Weight: 1
  - m_Path: rig_grp/master_anim_space_switcher_follow/master_anim_space_switcher/master_anim/offset_anim/ctrl_rig/body_grp/body_anim_space_switcher_follow/body_anim_space_switcher/body_anim_grp/body_anim/spineIK_twist_grp/spine_01_twistLocGrp
    m_Weight: 1
  - m_Path: rig_grp/master_anim_space_switcher_follow/master_anim_space_switcher/master_anim/offset_anim/ctrl_rig/body_grp/body_anim_space_switcher_follow/body_anim_space_switcher/body_anim_grp/body_anim/spineIK_twist_grp/spine_01_twistLocGrp/spine_01_orientLoc
    m_Weight: 1
  - m_Path: rig_grp/master_anim_space_switcher_follow/master_anim_space_switcher/master_anim/offset_anim/ctrl_rig/body_grp/body_anim_space_switcher_follow/body_anim_space_switcher/body_anim_grp/body_anim/spineIK_twist_grp/spine_01_twistLocGrp/spine_01_twistLoc
    m_Weight: 1
  - m_Path: rig_grp/master_anim_space_switcher_follow/master_anim_space_switcher/master_anim/offset_anim/ctrl_rig/body_grp/body_anim_space_switcher_follow/body_anim_space_switcher/body_anim_grp/body_anim/spineIK_twist_grp/spine_02_twistLocGrp
    m_Weight: 1
  - m_Path: rig_grp/master_anim_space_switcher_follow/master_anim_space_switcher/master_anim/offset_anim/ctrl_rig/body_grp/body_anim_space_switcher_follow/body_anim_space_switcher/body_anim_grp/body_anim/spineIK_twist_grp/spine_02_twistLocGrp/spine_02_orientLoc
    m_Weight: 1
  - m_Path: rig_grp/master_anim_space_switcher_follow/master_anim_space_switcher/master_anim/offset_anim/ctrl_rig/body_grp/body_anim_space_switcher_follow/body_anim_space_switcher/body_anim_grp/body_anim/spineIK_twist_grp/spine_02_twistLocGrp/spine_02_twistLoc
    m_Weight: 1
  - m_Path: rig_grp/master_anim_space_switcher_follow/master_anim_space_switcher/master_anim/offset_anim/ctrl_rig/body_grp/body_anim_space_switcher_follow/body_anim_space_switcher/body_anim_grp/body_anim/splineIK_spine_01
    m_Weight: 1
  - m_Path: rig_grp/master_anim_space_switcher_follow/master_anim_space_switcher/master_anim/offset_anim/ctrl_rig/body_grp/body_anim_space_switcher_follow/body_anim_space_switcher/body_anim_grp/body_anim/splineIK_spine_01/splineIK_spine_02
    m_Weight: 1
  - m_Path: rig_grp/master_anim_space_switcher_follow/master_anim_space_switcher/master_anim/offset_anim/ctrl_rig/body_grp/body_anim_space_switcher_follow/body_anim_space_switcher/body_anim_grp/body_anim/splineIK_spine_01/splineIK_spine_02/splineIK_spine_03
    m_Weight: 1
  - m_Path: rig_grp/master_anim_space_switcher_follow/master_anim_space_switcher/master_anim/offset_anim/ctrl_rig/body_grp/body_anim_space_switcher_follow/body_anim_space_switcher/body_anim_grp/body_anim/splineIK_spine_01/splineIK_spine_02/splineIK_spine_03/twist_splineIK_spine_03
    m_Weight: 1
  - m_Path: rig_grp/master_anim_space_switcher_follow/master_anim_space_switcher/master_anim/offset_anim/ctrl_rig/body_grp/body_anim_space_switcher_follow/body_anim_space_switcher/body_anim_grp/body_anim/splineIK_spine_01/splineIK_spine_02/twist_splineIK_spine_02
    m_Weight: 1
  - m_Path: rig_grp/master_anim_space_switcher_follow/master_anim_space_switcher/master_anim/offset_anim/ctrl_rig/body_grp/body_anim_space_switcher_follow/body_anim_space_switcher/body_anim_grp/body_anim/splineIK_spine_01/twist_splineIK_spine_01
    m_Weight: 1
  - m_Path: rig_grp/master_anim_space_switcher_follow/master_anim_space_switcher/master_anim/offset_anim/ctrl_rig/body_grp/spine_splineIK_curve
    m_Weight: 1
  - m_Path: rig_grp/master_anim_space_switcher_follow/master_anim_space_switcher/master_anim/offset_anim/ctrl_rig/finger_sys_grp_l
    m_Weight: 1
  - m_Path: rig_grp/master_anim_space_switcher_follow/master_anim_space_switcher/master_anim/offset_anim/ctrl_rig/finger_sys_grp_l/hand_driven_grp_master_l
    m_Weight: 1
  - m_Path: rig_grp/master_anim_space_switcher_follow/master_anim_space_switcher/master_anim/offset_anim/ctrl_rig/finger_sys_grp_l/hand_driven_grp_master_l/hand_driven_grp_l
    m_Weight: 1
  - m_Path: rig_grp/master_anim_space_switcher_follow/master_anim_space_switcher/master_anim/offset_anim/ctrl_rig/finger_sys_grp_l/hand_driven_grp_master_l/hand_driven_grp_l/fk_finger_controls_l_grp
    m_Weight: 1
  - m_Path: rig_grp/master_anim_space_switcher_follow/master_anim_space_switcher/master_anim/offset_anim/ctrl_rig/finger_sys_grp_l/hand_driven_grp_master_l/hand_driven_grp_l/fk_finger_controls_l_grp/middle_finger_fk_ctrl_1_l_grp
    m_Weight: 1
  - m_Path: rig_grp/master_anim_space_switcher_follow/master_anim_space_switcher/master_anim/offset_anim/ctrl_rig/finger_sys_grp_l/hand_driven_grp_master_l/hand_driven_grp_l/fk_finger_controls_l_grp/middle_finger_fk_ctrl_1_l_grp/middle_finger_fk_ctrl_1_l_driven_grp
    m_Weight: 1
  - m_Path: rig_grp/master_anim_space_switcher_follow/master_anim_space_switcher/master_anim/offset_anim/ctrl_rig/finger_sys_grp_l/hand_driven_grp_master_l/hand_driven_grp_l/fk_finger_controls_l_grp/middle_finger_fk_ctrl_1_l_grp/middle_finger_fk_ctrl_1_l_driven_grp/middle_finger_fk_ctrl_1_l
    m_Weight: 1
  - m_Path: rig_grp/master_anim_space_switcher_follow/master_anim_space_switcher/master_anim/offset_anim/ctrl_rig/finger_sys_grp_l/hand_driven_grp_master_l/hand_driven_grp_l/fk_finger_controls_l_grp/middle_finger_fk_ctrl_1_l_grp/middle_finger_fk_ctrl_1_l_driven_grp/middle_finger_fk_ctrl_1_l/middle_finger_fk_ctrl_2_l_grp
    m_Weight: 1
  - m_Path: rig_grp/master_anim_space_switcher_follow/master_anim_space_switcher/master_anim/offset_anim/ctrl_rig/finger_sys_grp_l/hand_driven_grp_master_l/hand_driven_grp_l/fk_finger_controls_l_grp/middle_finger_fk_ctrl_1_l_grp/middle_finger_fk_ctrl_1_l_driven_grp/middle_finger_fk_ctrl_1_l/middle_finger_fk_ctrl_2_l_grp/middle_finger_fk_ctrl_2_l_driven_grp
    m_Weight: 1
  - m_Path: rig_grp/master_anim_space_switcher_follow/master_anim_space_switcher/master_anim/offset_anim/ctrl_rig/finger_sys_grp_l/hand_driven_grp_master_l/hand_driven_grp_l/fk_finger_controls_l_grp/middle_finger_fk_ctrl_1_l_grp/middle_finger_fk_ctrl_1_l_driven_grp/middle_finger_fk_ctrl_1_l/middle_finger_fk_ctrl_2_l_grp/middle_finger_fk_ctrl_2_l_driven_grp/middle_finger_fk_ctrl_2_l
    m_Weight: 1
  - m_Path: rig_grp/master_anim_space_switcher_follow/master_anim_space_switcher/master_anim/offset_anim/ctrl_rig/finger_sys_grp_l/hand_driven_grp_master_l/hand_driven_grp_l/fk_finger_controls_l_grp/middle_finger_fk_ctrl_1_l_grp/middle_finger_fk_ctrl_1_l_driven_grp/middle_finger_fk_ctrl_1_l/middle_finger_fk_ctrl_2_l_grp/middle_finger_fk_ctrl_2_l_driven_grp/middle_finger_fk_ctrl_2_l/middle_finger_fk_ctrl_3_l_grp
    m_Weight: 1
  - m_Path: rig_grp/master_anim_space_switcher_follow/master_anim_space_switcher/master_anim/offset_anim/ctrl_rig/finger_sys_grp_l/hand_driven_grp_master_l/hand_driven_grp_l/fk_finger_controls_l_grp/middle_finger_fk_ctrl_1_l_grp/middle_finger_fk_ctrl_1_l_driven_grp/middle_finger_fk_ctrl_1_l/middle_finger_fk_ctrl_2_l_grp/middle_finger_fk_ctrl_2_l_driven_grp/middle_finger_fk_ctrl_2_l/middle_finger_fk_ctrl_3_l_grp/middle_finger_fk_ctrl_3_l_driven_grp
    m_Weight: 1
  - m_Path: rig_grp/master_anim_space_switcher_follow/master_anim_space_switcher/master_anim/offset_anim/ctrl_rig/finger_sys_grp_l/hand_driven_grp_master_l/hand_driven_grp_l/fk_finger_controls_l_grp/middle_finger_fk_ctrl_1_l_grp/middle_finger_fk_ctrl_1_l_driven_grp/middle_finger_fk_ctrl_1_l/middle_finger_fk_ctrl_2_l_grp/middle_finger_fk_ctrl_2_l_driven_grp/middle_finger_fk_ctrl_2_l/middle_finger_fk_ctrl_3_l_grp/middle_finger_fk_ctrl_3_l_driven_grp/middle_finger_fk_ctrl_3_l
    m_Weight: 1
  - m_Path: rig_grp/master_anim_space_switcher_follow/master_anim_space_switcher/master_anim/offset_anim/ctrl_rig/finger_sys_grp_l/hand_driven_grp_master_l/hand_driven_grp_l/fk_finger_controls_l_grp/thumb_finger_fk_ctrl_1_l_grp
    m_Weight: 1
  - m_Path: rig_grp/master_anim_space_switcher_follow/master_anim_space_switcher/master_anim/offset_anim/ctrl_rig/finger_sys_grp_l/hand_driven_grp_master_l/hand_driven_grp_l/fk_finger_controls_l_grp/thumb_finger_fk_ctrl_1_l_grp/thumb_finger_fk_ctrl_1_l_driven_grp
    m_Weight: 1
  - m_Path: rig_grp/master_anim_space_switcher_follow/master_anim_space_switcher/master_anim/offset_anim/ctrl_rig/finger_sys_grp_l/hand_driven_grp_master_l/hand_driven_grp_l/fk_finger_controls_l_grp/thumb_finger_fk_ctrl_1_l_grp/thumb_finger_fk_ctrl_1_l_driven_grp/thumb_finger_fk_ctrl_1_l
    m_Weight: 1
  - m_Path: rig_grp/master_anim_space_switcher_follow/master_anim_space_switcher/master_anim/offset_anim/ctrl_rig/finger_sys_grp_l/hand_driven_grp_master_l/hand_driven_grp_l/fk_finger_controls_l_grp/thumb_finger_fk_ctrl_1_l_grp/thumb_finger_fk_ctrl_1_l_driven_grp/thumb_finger_fk_ctrl_1_l/thumb_finger_fk_ctrl_2_l_grp
    m_Weight: 1
  - m_Path: rig_grp/master_anim_space_switcher_follow/master_anim_space_switcher/master_anim/offset_anim/ctrl_rig/finger_sys_grp_l/hand_driven_grp_master_l/hand_driven_grp_l/fk_finger_controls_l_grp/thumb_finger_fk_ctrl_1_l_grp/thumb_finger_fk_ctrl_1_l_driven_grp/thumb_finger_fk_ctrl_1_l/thumb_finger_fk_ctrl_2_l_grp/thumb_finger_fk_ctrl_2_l_driven_grp
    m_Weight: 1
  - m_Path: rig_grp/master_anim_space_switcher_follow/master_anim_space_switcher/master_anim/offset_anim/ctrl_rig/finger_sys_grp_l/hand_driven_grp_master_l/hand_driven_grp_l/fk_finger_controls_l_grp/thumb_finger_fk_ctrl_1_l_grp/thumb_finger_fk_ctrl_1_l_driven_grp/thumb_finger_fk_ctrl_1_l/thumb_finger_fk_ctrl_2_l_grp/thumb_finger_fk_ctrl_2_l_driven_grp/thumb_finger_fk_ctrl_2_l
    m_Weight: 1
  - m_Path: rig_grp/master_anim_space_switcher_follow/master_anim_space_switcher/master_anim/offset_anim/ctrl_rig/finger_sys_grp_l/hand_driven_grp_master_l/hand_driven_grp_l/fk_finger_controls_l_grp/thumb_finger_fk_ctrl_1_l_grp/thumb_finger_fk_ctrl_1_l_driven_grp/thumb_finger_fk_ctrl_1_l/thumb_finger_fk_ctrl_2_l_grp/thumb_finger_fk_ctrl_2_l_driven_grp/thumb_finger_fk_ctrl_2_l/thumb_finger_fk_ctrl_3_l_grp
    m_Weight: 1
  - m_Path: rig_grp/master_anim_space_switcher_follow/master_anim_space_switcher/master_anim/offset_anim/ctrl_rig/finger_sys_grp_l/hand_driven_grp_master_l/hand_driven_grp_l/fk_finger_controls_l_grp/thumb_finger_fk_ctrl_1_l_grp/thumb_finger_fk_ctrl_1_l_driven_grp/thumb_finger_fk_ctrl_1_l/thumb_finger_fk_ctrl_2_l_grp/thumb_finger_fk_ctrl_2_l_driven_grp/thumb_finger_fk_ctrl_2_l/thumb_finger_fk_ctrl_3_l_grp/thumb_finger_fk_ctrl_3_l_driven_grp
    m_Weight: 1
  - m_Path: rig_grp/master_anim_space_switcher_follow/master_anim_space_switcher/master_anim/offset_anim/ctrl_rig/finger_sys_grp_l/hand_driven_grp_master_l/hand_driven_grp_l/fk_finger_controls_l_grp/thumb_finger_fk_ctrl_1_l_grp/thumb_finger_fk_ctrl_1_l_driven_grp/thumb_finger_fk_ctrl_1_l/thumb_finger_fk_ctrl_2_l_grp/thumb_finger_fk_ctrl_2_l_driven_grp/thumb_finger_fk_ctrl_2_l/thumb_finger_fk_ctrl_3_l_grp/thumb_finger_fk_ctrl_3_l_driven_grp/thumb_finger_fk_ctrl_3_l
    m_Weight: 1
  - m_Path: rig_grp/master_anim_space_switcher_follow/master_anim_space_switcher/master_anim/offset_anim/ctrl_rig/finger_sys_grp_l/hand_driven_grp_master_l/hand_driven_grp_l/rig_ik_middle_01_l
    m_Weight: 1
  - m_Path: rig_grp/master_anim_space_switcher_follow/master_anim_space_switcher/master_anim/offset_anim/ctrl_rig/finger_sys_grp_l/hand_driven_grp_master_l/hand_driven_grp_l/rig_ik_middle_01_l/rig_ik_middle_02_l
    m_Weight: 1
  - m_Path: rig_grp/master_anim_space_switcher_follow/master_anim_space_switcher/master_anim/offset_anim/ctrl_rig/finger_sys_grp_l/hand_driven_grp_master_l/hand_driven_grp_l/rig_ik_middle_01_l/rig_ik_middle_02_l/rig_ik_middle_03_l
    m_Weight: 1
  - m_Path: rig_grp/master_anim_space_switcher_follow/master_anim_space_switcher/master_anim/offset_anim/ctrl_rig/finger_sys_grp_l/hand_driven_grp_master_l/hand_driven_grp_l/rig_ik_thumb_01_l
    m_Weight: 1
  - m_Path: rig_grp/master_anim_space_switcher_follow/master_anim_space_switcher/master_anim/offset_anim/ctrl_rig/finger_sys_grp_l/hand_driven_grp_master_l/hand_driven_grp_l/rig_ik_thumb_01_l/rig_ik_thumb_02_l
    m_Weight: 1
  - m_Path: rig_grp/master_anim_space_switcher_follow/master_anim_space_switcher/master_anim/offset_anim/ctrl_rig/finger_sys_grp_l/hand_driven_grp_master_l/hand_driven_grp_l/rig_ik_thumb_01_l/rig_ik_thumb_02_l/rig_ik_thumb_03_l
    m_Weight: 1
  - m_Path: rig_grp/master_anim_space_switcher_follow/master_anim_space_switcher/master_anim/offset_anim/ctrl_rig/finger_sys_grp_l/hand_fk_joints_grp_l
    m_Weight: 1
  - m_Path: rig_grp/master_anim_space_switcher_follow/master_anim_space_switcher/master_anim/offset_anim/ctrl_rig/finger_sys_grp_l/hand_fk_joints_grp_l/rig_fk_middle_01_l
    m_Weight: 1
  - m_Path: rig_grp/master_anim_space_switcher_follow/master_anim_space_switcher/master_anim/offset_anim/ctrl_rig/finger_sys_grp_l/hand_fk_joints_grp_l/rig_fk_middle_01_l/rig_fk_middle_02_l
    m_Weight: 1
  - m_Path: rig_grp/master_anim_space_switcher_follow/master_anim_space_switcher/master_anim/offset_anim/ctrl_rig/finger_sys_grp_l/hand_fk_joints_grp_l/rig_fk_middle_01_l/rig_fk_middle_02_l/rig_fk_middle_03_l
    m_Weight: 1
  - m_Path: rig_grp/master_anim_space_switcher_follow/master_anim_space_switcher/master_anim/offset_anim/ctrl_rig/finger_sys_grp_l/hand_fk_joints_grp_l/rig_fk_thumb_01_l
    m_Weight: 1
  - m_Path: rig_grp/master_anim_space_switcher_follow/master_anim_space_switcher/master_anim/offset_anim/ctrl_rig/finger_sys_grp_l/hand_fk_joints_grp_l/rig_fk_thumb_01_l/rig_fk_thumb_02_l
    m_Weight: 1
  - m_Path: rig_grp/master_anim_space_switcher_follow/master_anim_space_switcher/master_anim/offset_anim/ctrl_rig/finger_sys_grp_l/hand_fk_joints_grp_l/rig_fk_thumb_01_l/rig_fk_thumb_02_l/rig_fk_thumb_03_l
    m_Weight: 1
  - m_Path: rig_grp/master_anim_space_switcher_follow/master_anim_space_switcher/master_anim/offset_anim/ctrl_rig/finger_sys_grp_l/middle_finger_l_mode_grp
    m_Weight: 1
  - m_Path: rig_grp/master_anim_space_switcher_follow/master_anim_space_switcher/master_anim/offset_anim/ctrl_rig/finger_sys_grp_l/middle_finger_l_mode_grp/middle_finger_l_mode_anim
    m_Weight: 1
  - m_Path: rig_grp/master_anim_space_switcher_follow/master_anim_space_switcher/master_anim/offset_anim/ctrl_rig/finger_sys_grp_l/thumb_finger_l_mode_grp
    m_Weight: 1
  - m_Path: rig_grp/master_anim_space_switcher_follow/master_anim_space_switcher/master_anim/offset_anim/ctrl_rig/finger_sys_grp_l/thumb_finger_l_mode_grp/thumb_finger_l_mode_anim
    m_Weight: 1
  - m_Path: rig_grp/master_anim_space_switcher_follow/master_anim_space_switcher/master_anim/offset_anim/ctrl_rig/finger_sys_grp_r
    m_Weight: 1
  - m_Path: rig_grp/master_anim_space_switcher_follow/master_anim_space_switcher/master_anim/offset_anim/ctrl_rig/finger_sys_grp_r/hand_driven_grp_master_r
    m_Weight: 1
  - m_Path: rig_grp/master_anim_space_switcher_follow/master_anim_space_switcher/master_anim/offset_anim/ctrl_rig/finger_sys_grp_r/hand_driven_grp_master_r/hand_driven_grp_r
    m_Weight: 1
  - m_Path: rig_grp/master_anim_space_switcher_follow/master_anim_space_switcher/master_anim/offset_anim/ctrl_rig/finger_sys_grp_r/hand_driven_grp_master_r/hand_driven_grp_r/fk_finger_controls_r_grp
    m_Weight: 1
  - m_Path: rig_grp/master_anim_space_switcher_follow/master_anim_space_switcher/master_anim/offset_anim/ctrl_rig/finger_sys_grp_r/hand_driven_grp_master_r/hand_driven_grp_r/fk_finger_controls_r_grp/middle_finger_fk_ctrl_1_r_grp
    m_Weight: 1
  - m_Path: rig_grp/master_anim_space_switcher_follow/master_anim_space_switcher/master_anim/offset_anim/ctrl_rig/finger_sys_grp_r/hand_driven_grp_master_r/hand_driven_grp_r/fk_finger_controls_r_grp/middle_finger_fk_ctrl_1_r_grp/middle_finger_fk_ctrl_1_r_driven_grp
    m_Weight: 1
  - m_Path: rig_grp/master_anim_space_switcher_follow/master_anim_space_switcher/master_anim/offset_anim/ctrl_rig/finger_sys_grp_r/hand_driven_grp_master_r/hand_driven_grp_r/fk_finger_controls_r_grp/middle_finger_fk_ctrl_1_r_grp/middle_finger_fk_ctrl_1_r_driven_grp/middle_finger_fk_ctrl_1_r
    m_Weight: 1
  - m_Path: rig_grp/master_anim_space_switcher_follow/master_anim_space_switcher/master_anim/offset_anim/ctrl_rig/finger_sys_grp_r/hand_driven_grp_master_r/hand_driven_grp_r/fk_finger_controls_r_grp/middle_finger_fk_ctrl_1_r_grp/middle_finger_fk_ctrl_1_r_driven_grp/middle_finger_fk_ctrl_1_r/middle_finger_fk_ctrl_2_r_grp
    m_Weight: 1
  - m_Path: rig_grp/master_anim_space_switcher_follow/master_anim_space_switcher/master_anim/offset_anim/ctrl_rig/finger_sys_grp_r/hand_driven_grp_master_r/hand_driven_grp_r/fk_finger_controls_r_grp/middle_finger_fk_ctrl_1_r_grp/middle_finger_fk_ctrl_1_r_driven_grp/middle_finger_fk_ctrl_1_r/middle_finger_fk_ctrl_2_r_grp/middle_finger_fk_ctrl_2_r_driven_grp
    m_Weight: 1
  - m_Path: rig_grp/master_anim_space_switcher_follow/master_anim_space_switcher/master_anim/offset_anim/ctrl_rig/finger_sys_grp_r/hand_driven_grp_master_r/hand_driven_grp_r/fk_finger_controls_r_grp/middle_finger_fk_ctrl_1_r_grp/middle_finger_fk_ctrl_1_r_driven_grp/middle_finger_fk_ctrl_1_r/middle_finger_fk_ctrl_2_r_grp/middle_finger_fk_ctrl_2_r_driven_grp/middle_finger_fk_ctrl_2_r
    m_Weight: 1
  - m_Path: rig_grp/master_anim_space_switcher_follow/master_anim_space_switcher/master_anim/offset_anim/ctrl_rig/finger_sys_grp_r/hand_driven_grp_master_r/hand_driven_grp_r/fk_finger_controls_r_grp/middle_finger_fk_ctrl_1_r_grp/middle_finger_fk_ctrl_1_r_driven_grp/middle_finger_fk_ctrl_1_r/middle_finger_fk_ctrl_2_r_grp/middle_finger_fk_ctrl_2_r_driven_grp/middle_finger_fk_ctrl_2_r/middle_finger_fk_ctrl_3_r_grp
    m_Weight: 1
  - m_Path: rig_grp/master_anim_space_switcher_follow/master_anim_space_switcher/master_anim/offset_anim/ctrl_rig/finger_sys_grp_r/hand_driven_grp_master_r/hand_driven_grp_r/fk_finger_controls_r_grp/middle_finger_fk_ctrl_1_r_grp/middle_finger_fk_ctrl_1_r_driven_grp/middle_finger_fk_ctrl_1_r/middle_finger_fk_ctrl_2_r_grp/middle_finger_fk_ctrl_2_r_driven_grp/middle_finger_fk_ctrl_2_r/middle_finger_fk_ctrl_3_r_grp/middle_finger_fk_ctrl_3_r_driven_grp
    m_Weight: 1
  - m_Path: rig_grp/master_anim_space_switcher_follow/master_anim_space_switcher/master_anim/offset_anim/ctrl_rig/finger_sys_grp_r/hand_driven_grp_master_r/hand_driven_grp_r/fk_finger_controls_r_grp/middle_finger_fk_ctrl_1_r_grp/middle_finger_fk_ctrl_1_r_driven_grp/middle_finger_fk_ctrl_1_r/middle_finger_fk_ctrl_2_r_grp/middle_finger_fk_ctrl_2_r_driven_grp/middle_finger_fk_ctrl_2_r/middle_finger_fk_ctrl_3_r_grp/middle_finger_fk_ctrl_3_r_driven_grp/middle_finger_fk_ctrl_3_r
    m_Weight: 1
  - m_Path: rig_grp/master_anim_space_switcher_follow/master_anim_space_switcher/master_anim/offset_anim/ctrl_rig/finger_sys_grp_r/hand_driven_grp_master_r/hand_driven_grp_r/fk_finger_controls_r_grp/thumb_finger_fk_ctrl_1_r_grp
    m_Weight: 1
  - m_Path: rig_grp/master_anim_space_switcher_follow/master_anim_space_switcher/master_anim/offset_anim/ctrl_rig/finger_sys_grp_r/hand_driven_grp_master_r/hand_driven_grp_r/fk_finger_controls_r_grp/thumb_finger_fk_ctrl_1_r_grp/thumb_finger_fk_ctrl_1_r_driven_grp
    m_Weight: 1
  - m_Path: rig_grp/master_anim_space_switcher_follow/master_anim_space_switcher/master_anim/offset_anim/ctrl_rig/finger_sys_grp_r/hand_driven_grp_master_r/hand_driven_grp_r/fk_finger_controls_r_grp/thumb_finger_fk_ctrl_1_r_grp/thumb_finger_fk_ctrl_1_r_driven_grp/thumb_finger_fk_ctrl_1_r
    m_Weight: 1
  - m_Path: rig_grp/master_anim_space_switcher_follow/master_anim_space_switcher/master_anim/offset_anim/ctrl_rig/finger_sys_grp_r/hand_driven_grp_master_r/hand_driven_grp_r/fk_finger_controls_r_grp/thumb_finger_fk_ctrl_1_r_grp/thumb_finger_fk_ctrl_1_r_driven_grp/thumb_finger_fk_ctrl_1_r/thumb_finger_fk_ctrl_2_r_grp
    m_Weight: 1
  - m_Path: rig_grp/master_anim_space_switcher_follow/master_anim_space_switcher/master_anim/offset_anim/ctrl_rig/finger_sys_grp_r/hand_driven_grp_master_r/hand_driven_grp_r/fk_finger_controls_r_grp/thumb_finger_fk_ctrl_1_r_grp/thumb_finger_fk_ctrl_1_r_driven_grp/thumb_finger_fk_ctrl_1_r/thumb_finger_fk_ctrl_2_r_grp/thumb_finger_fk_ctrl_2_r_driven_grp
    m_Weight: 1
  - m_Path: rig_grp/master_anim_space_switcher_follow/master_anim_space_switcher/master_anim/offset_anim/ctrl_rig/finger_sys_grp_r/hand_driven_grp_master_r/hand_driven_grp_r/fk_finger_controls_r_grp/thumb_finger_fk_ctrl_1_r_grp/thumb_finger_fk_ctrl_1_r_driven_grp/thumb_finger_fk_ctrl_1_r/thumb_finger_fk_ctrl_2_r_grp/thumb_finger_fk_ctrl_2_r_driven_grp/thumb_finger_fk_ctrl_2_r
    m_Weight: 1
  - m_Path: rig_grp/master_anim_space_switcher_follow/master_anim_space_switcher/master_anim/offset_anim/ctrl_rig/finger_sys_grp_r/hand_driven_grp_master_r/hand_driven_grp_r/fk_finger_controls_r_grp/thumb_finger_fk_ctrl_1_r_grp/thumb_finger_fk_ctrl_1_r_driven_grp/thumb_finger_fk_ctrl_1_r/thumb_finger_fk_ctrl_2_r_grp/thumb_finger_fk_ctrl_2_r_driven_grp/thumb_finger_fk_ctrl_2_r/thumb_finger_fk_ctrl_3_r_grp
    m_Weight: 1
  - m_Path: rig_grp/master_anim_space_switcher_follow/master_anim_space_switcher/master_anim/offset_anim/ctrl_rig/finger_sys_grp_r/hand_driven_grp_master_r/hand_driven_grp_r/fk_finger_controls_r_grp/thumb_finger_fk_ctrl_1_r_grp/thumb_finger_fk_ctrl_1_r_driven_grp/thumb_finger_fk_ctrl_1_r/thumb_finger_fk_ctrl_2_r_grp/thumb_finger_fk_ctrl_2_r_driven_grp/thumb_finger_fk_ctrl_2_r/thumb_finger_fk_ctrl_3_r_grp/thumb_finger_fk_ctrl_3_r_driven_grp
    m_Weight: 1
  - m_Path: rig_grp/master_anim_space_switcher_follow/master_anim_space_switcher/master_anim/offset_anim/ctrl_rig/finger_sys_grp_r/hand_driven_grp_master_r/hand_driven_grp_r/fk_finger_controls_r_grp/thumb_finger_fk_ctrl_1_r_grp/thumb_finger_fk_ctrl_1_r_driven_grp/thumb_finger_fk_ctrl_1_r/thumb_finger_fk_ctrl_2_r_grp/thumb_finger_fk_ctrl_2_r_driven_grp/thumb_finger_fk_ctrl_2_r/thumb_finger_fk_ctrl_3_r_grp/thumb_finger_fk_ctrl_3_r_driven_grp/thumb_finger_fk_ctrl_3_r
    m_Weight: 1
  - m_Path: rig_grp/master_anim_space_switcher_follow/master_anim_space_switcher/master_anim/offset_anim/ctrl_rig/finger_sys_grp_r/hand_driven_grp_master_r/hand_driven_grp_r/rig_ik_middle_01_r
    m_Weight: 1
  - m_Path: rig_grp/master_anim_space_switcher_follow/master_anim_space_switcher/master_anim/offset_anim/ctrl_rig/finger_sys_grp_r/hand_driven_grp_master_r/hand_driven_grp_r/rig_ik_middle_01_r/rig_ik_middle_02_r
    m_Weight: 1
  - m_Path: rig_grp/master_anim_space_switcher_follow/master_anim_space_switcher/master_anim/offset_anim/ctrl_rig/finger_sys_grp_r/hand_driven_grp_master_r/hand_driven_grp_r/rig_ik_middle_01_r/rig_ik_middle_02_r/rig_ik_middle_03_r
    m_Weight: 1
  - m_Path: rig_grp/master_anim_space_switcher_follow/master_anim_space_switcher/master_anim/offset_anim/ctrl_rig/finger_sys_grp_r/hand_driven_grp_master_r/hand_driven_grp_r/rig_ik_thumb_01_r
    m_Weight: 1
  - m_Path: rig_grp/master_anim_space_switcher_follow/master_anim_space_switcher/master_anim/offset_anim/ctrl_rig/finger_sys_grp_r/hand_driven_grp_master_r/hand_driven_grp_r/rig_ik_thumb_01_r/rig_ik_thumb_02_r
    m_Weight: 1
  - m_Path: rig_grp/master_anim_space_switcher_follow/master_anim_space_switcher/master_anim/offset_anim/ctrl_rig/finger_sys_grp_r/hand_driven_grp_master_r/hand_driven_grp_r/rig_ik_thumb_01_r/rig_ik_thumb_02_r/rig_ik_thumb_03_r
    m_Weight: 1
  - m_Path: rig_grp/master_anim_space_switcher_follow/master_anim_space_switcher/master_anim/offset_anim/ctrl_rig/finger_sys_grp_r/hand_fk_joints_grp_r
    m_Weight: 1
  - m_Path: rig_grp/master_anim_space_switcher_follow/master_anim_space_switcher/master_anim/offset_anim/ctrl_rig/finger_sys_grp_r/hand_fk_joints_grp_r/rig_fk_middle_01_r
    m_Weight: 1
  - m_Path: rig_grp/master_anim_space_switcher_follow/master_anim_space_switcher/master_anim/offset_anim/ctrl_rig/finger_sys_grp_r/hand_fk_joints_grp_r/rig_fk_middle_01_r/rig_fk_middle_02_r
    m_Weight: 1
  - m_Path: rig_grp/master_anim_space_switcher_follow/master_anim_space_switcher/master_anim/offset_anim/ctrl_rig/finger_sys_grp_r/hand_fk_joints_grp_r/rig_fk_middle_01_r/rig_fk_middle_02_r/rig_fk_middle_03_r
    m_Weight: 1
  - m_Path: rig_grp/master_anim_space_switcher_follow/master_anim_space_switcher/master_anim/offset_anim/ctrl_rig/finger_sys_grp_r/hand_fk_joints_grp_r/rig_fk_thumb_01_r
    m_Weight: 1
  - m_Path: rig_grp/master_anim_space_switcher_follow/master_anim_space_switcher/master_anim/offset_anim/ctrl_rig/finger_sys_grp_r/hand_fk_joints_grp_r/rig_fk_thumb_01_r/rig_fk_thumb_02_r
    m_Weight: 1
  - m_Path: rig_grp/master_anim_space_switcher_follow/master_anim_space_switcher/master_anim/offset_anim/ctrl_rig/finger_sys_grp_r/hand_fk_joints_grp_r/rig_fk_thumb_01_r/rig_fk_thumb_02_r/rig_fk_thumb_03_r
    m_Weight: 1
  - m_Path: rig_grp/master_anim_space_switcher_follow/master_anim_space_switcher/master_anim/offset_anim/ctrl_rig/finger_sys_grp_r/middle_finger_r_mode_grp
    m_Weight: 1
  - m_Path: rig_grp/master_anim_space_switcher_follow/master_anim_space_switcher/master_anim/offset_anim/ctrl_rig/finger_sys_grp_r/middle_finger_r_mode_grp/middle_finger_r_mode_anim
    m_Weight: 1
  - m_Path: rig_grp/master_anim_space_switcher_follow/master_anim_space_switcher/master_anim/offset_anim/ctrl_rig/finger_sys_grp_r/thumb_finger_r_mode_grp
    m_Weight: 1
  - m_Path: rig_grp/master_anim_space_switcher_follow/master_anim_space_switcher/master_anim/offset_anim/ctrl_rig/finger_sys_grp_r/thumb_finger_r_mode_grp/thumb_finger_r_mode_anim
    m_Weight: 1
  - m_Path: rig_grp/master_anim_space_switcher_follow/master_anim_space_switcher/master_anim/offset_anim/ctrl_rig/leg_sys_grp
    m_Weight: 1
  - m_Path: rig_grp/master_anim_space_switcher_follow/master_anim_space_switcher/master_anim/offset_anim/ctrl_rig/leg_sys_grp/leg_group_l
    m_Weight: 1
  - m_Path: rig_grp/master_anim_space_switcher_follow/master_anim_space_switcher/master_anim/offset_anim/ctrl_rig/leg_sys_grp/leg_group_l/calf_l_roll_grp
    m_Weight: 1
  - m_Path: rig_grp/master_anim_space_switcher_follow/master_anim_space_switcher/master_anim/offset_anim/ctrl_rig/leg_sys_grp/leg_group_l/calf_l_roll_grp/calf_l_twist_joint
    m_Weight: 1
  - m_Path: rig_grp/master_anim_space_switcher_follow/master_anim_space_switcher/master_anim/offset_anim/ctrl_rig/leg_sys_grp/leg_group_l/calf_l_roll_grp/calf_l_twist_joint/calf_l_twist_mod
    m_Weight: 1
  - m_Path: rig_grp/master_anim_space_switcher_follow/master_anim_space_switcher/master_anim/offset_anim/ctrl_rig/leg_sys_grp/leg_group_l/calf_l_roll_grp/calf_l_twist_joint/calf_l_twist_mod/calf_l_twist_anim_grp
    m_Weight: 1
  - m_Path: rig_grp/master_anim_space_switcher_follow/master_anim_space_switcher/master_anim/offset_anim/ctrl_rig/leg_sys_grp/leg_group_l/calf_l_roll_grp/calf_l_twist_joint/calf_l_twist_mod/calf_l_twist_anim_grp/calf_l_twist_anim
    m_Weight: 1
  - m_Path: rig_grp/master_anim_space_switcher_follow/master_anim_space_switcher/master_anim/offset_anim/ctrl_rig/leg_sys_grp/leg_group_l/ik_leg_grp_l
    m_Weight: 1
  - m_Path: rig_grp/master_anim_space_switcher_follow/master_anim_space_switcher/master_anim/offset_anim/ctrl_rig/leg_sys_grp/leg_group_l/ik_leg_grp_l/ik_foot_anim_l_space_switcher_follow
    m_Weight: 1
  - m_Path: rig_grp/master_anim_space_switcher_follow/master_anim_space_switcher/master_anim/offset_anim/ctrl_rig/leg_sys_grp/leg_group_l/ik_leg_grp_l/ik_foot_anim_l_space_switcher_follow/ik_foot_anim_l_space_switcher
    m_Weight: 1
  - m_Path: rig_grp/master_anim_space_switcher_follow/master_anim_space_switcher/master_anim/offset_anim/ctrl_rig/leg_sys_grp/leg_group_l/ik_leg_grp_l/ik_foot_anim_l_space_switcher_follow/ik_foot_anim_l_space_switcher/ik_foot_anim_grp_l
    m_Weight: 1
  - m_Path: rig_grp/master_anim_space_switcher_follow/master_anim_space_switcher/master_anim/offset_anim/ctrl_rig/leg_sys_grp/leg_group_l/ik_leg_grp_l/ik_foot_anim_l_space_switcher_follow/ik_foot_anim_l_space_switcher/ik_foot_anim_grp_l/ik_foot_anim_l
    m_Weight: 1
  - m_Path: rig_grp/master_anim_space_switcher_follow/master_anim_space_switcher/master_anim/offset_anim/ctrl_rig/leg_sys_grp/leg_group_l/leg_ctrl_grp_l
    m_Weight: 1
  - m_Path: rig_grp/master_anim_space_switcher_follow/master_anim_space_switcher/master_anim/offset_anim/ctrl_rig/leg_sys_grp/leg_group_l/leg_ctrl_grp_l/ik_leg_base_grp_l
    m_Weight: 1
  - m_Path: rig_grp/master_anim_space_switcher_follow/master_anim_space_switcher/master_anim/offset_anim/ctrl_rig/leg_sys_grp/leg_group_l/leg_ctrl_grp_l/ik_leg_end_grp_l
    m_Weight: 1
  - m_Path: rig_grp/master_anim_space_switcher_follow/master_anim_space_switcher/master_anim/offset_anim/ctrl_rig/leg_sys_grp/leg_group_l/leg_joints_grp_l
    m_Weight: 1
  - m_Path: rig_grp/master_anim_space_switcher_follow/master_anim_space_switcher/master_anim/offset_anim/ctrl_rig/leg_sys_grp/leg_group_l/leg_joints_grp_l/fk_leg_thigh_l
    m_Weight: 1
  - m_Path: rig_grp/master_anim_space_switcher_follow/master_anim_space_switcher/master_anim/offset_anim/ctrl_rig/leg_sys_grp/leg_group_l/leg_joints_grp_l/fk_leg_thigh_l/fk_leg_calf_l
    m_Weight: 1
  - m_Path: rig_grp/master_anim_space_switcher_follow/master_anim_space_switcher/master_anim/offset_anim/ctrl_rig/leg_sys_grp/leg_group_l/leg_joints_grp_l/fk_leg_thigh_l/fk_leg_calf_l/fk_leg_foot_l
    m_Weight: 1
  - m_Path: rig_grp/master_anim_space_switcher_follow/master_anim_space_switcher/master_anim/offset_anim/ctrl_rig/leg_sys_grp/leg_group_l/leg_joints_grp_l/fk_thigh_l_orient_grp
    m_Weight: 1
  - m_Path: rig_grp/master_anim_space_switcher_follow/master_anim_space_switcher/master_anim/offset_anim/ctrl_rig/leg_sys_grp/leg_group_l/leg_joints_grp_l/fk_thigh_l_orient_grp/fk_thigh_l_anim_grp
    m_Weight: 1
  - m_Path: rig_grp/master_anim_space_switcher_follow/master_anim_space_switcher/master_anim/offset_anim/ctrl_rig/leg_sys_grp/leg_group_l/leg_joints_grp_l/fk_thigh_l_orient_grp/fk_thigh_l_anim_grp/fk_thigh_l_anim
    m_Weight: 1
  - m_Path: rig_grp/master_anim_space_switcher_follow/master_anim_space_switcher/master_anim/offset_anim/ctrl_rig/leg_sys_grp/leg_group_l/leg_joints_grp_l/fk_thigh_l_orient_grp/fk_thigh_l_anim_grp/fk_thigh_l_anim/fk_calf_l_anim_grp
    m_Weight: 1
  - m_Path: rig_grp/master_anim_space_switcher_follow/master_anim_space_switcher/master_anim/offset_anim/ctrl_rig/leg_sys_grp/leg_group_l/leg_joints_grp_l/fk_thigh_l_orient_grp/fk_thigh_l_anim_grp/fk_thigh_l_anim/fk_calf_l_anim_grp/fk_calf_l_anim
    m_Weight: 1
  - m_Path: rig_grp/master_anim_space_switcher_follow/master_anim_space_switcher/master_anim/offset_anim/ctrl_rig/leg_sys_grp/leg_group_l/leg_joints_grp_l/fk_thigh_l_orient_grp/fk_thigh_l_anim_grp/fk_thigh_l_anim/fk_calf_l_anim_grp/fk_calf_l_anim/fk_foot_l_anim_grp
    m_Weight: 1
  - m_Path: rig_grp/master_anim_space_switcher_follow/master_anim_space_switcher/master_anim/offset_anim/ctrl_rig/leg_sys_grp/leg_group_l/leg_joints_grp_l/fk_thigh_l_orient_grp/fk_thigh_l_anim_grp/fk_thigh_l_anim/fk_calf_l_anim_grp/fk_calf_l_anim/fk_foot_l_anim_grp/fk_foot_l_anim
    m_Weight: 1
  - m_Path: rig_grp/master_anim_space_switcher_follow/master_anim_space_switcher/master_anim/offset_anim/ctrl_rig/leg_sys_grp/leg_group_l/leg_joints_grp_l/ik_leg_thigh_l
    m_Weight: 1
  - m_Path: rig_grp/master_anim_space_switcher_follow/master_anim_space_switcher/master_anim/offset_anim/ctrl_rig/leg_sys_grp/leg_group_l/leg_joints_grp_l/ik_leg_thigh_l/ik_leg_calf_l
    m_Weight: 1
  - m_Path: rig_grp/master_anim_space_switcher_follow/master_anim_space_switcher/master_anim/offset_anim/ctrl_rig/leg_sys_grp/leg_group_l/leg_joints_grp_l/ik_leg_thigh_l/ik_leg_calf_l/ik_leg_foot_l
    m_Weight: 1
  - m_Path: rig_grp/master_anim_space_switcher_follow/master_anim_space_switcher/master_anim/offset_anim/ctrl_rig/leg_sys_grp/leg_group_l/leg_joints_grp_l/ikFix_leg_thigh_l
    m_Weight: 1
  - m_Path: rig_grp/master_anim_space_switcher_follow/master_anim_space_switcher/master_anim/offset_anim/ctrl_rig/leg_sys_grp/leg_group_l/leg_joints_grp_l/ikFix_leg_thigh_l/ikFix_leg_calf_l
    m_Weight: 1
  - m_Path: rig_grp/master_anim_space_switcher_follow/master_anim_space_switcher/master_anim/offset_anim/ctrl_rig/leg_sys_grp/leg_group_l/leg_joints_grp_l/ikFix_leg_thigh_l/ikFix_leg_calf_l/ikFix_leg_foot_l
    m_Weight: 1
  - m_Path: rig_grp/master_anim_space_switcher_follow/master_anim_space_switcher/master_anim/offset_anim/ctrl_rig/leg_sys_grp/leg_group_l/leg_joints_grp_l/result_leg_thigh_l
    m_Weight: 1
  - m_Path: rig_grp/master_anim_space_switcher_follow/master_anim_space_switcher/master_anim/offset_anim/ctrl_rig/leg_sys_grp/leg_group_l/leg_joints_grp_l/result_leg_thigh_l/result_leg_calf_l
    m_Weight: 1
  - m_Path: rig_grp/master_anim_space_switcher_follow/master_anim_space_switcher/master_anim/offset_anim/ctrl_rig/leg_sys_grp/leg_group_l/leg_joints_grp_l/result_leg_thigh_l/result_leg_calf_l/result_leg_foot_l
    m_Weight: 1
  - m_Path: rig_grp/master_anim_space_switcher_follow/master_anim_space_switcher/master_anim/offset_anim/ctrl_rig/leg_sys_grp/leg_group_l/thigh_twist_grp_l
    m_Weight: 1
  - m_Path: rig_grp/master_anim_space_switcher_follow/master_anim_space_switcher/master_anim/offset_anim/ctrl_rig/leg_sys_grp/leg_group_l/thigh_twist_grp_l/l_thigh_twist_01_anim_grp
    m_Weight: 1
  - m_Path: rig_grp/master_anim_space_switcher_follow/master_anim_space_switcher/master_anim/offset_anim/ctrl_rig/leg_sys_grp/leg_group_l/thigh_twist_grp_l/l_thigh_twist_01_anim_grp/l_thigh_twist_01_driven_grp
    m_Weight: 1
  - m_Path: rig_grp/master_anim_space_switcher_follow/master_anim_space_switcher/master_anim/offset_anim/ctrl_rig/leg_sys_grp/leg_group_l/thigh_twist_grp_l/l_thigh_twist_01_anim_grp/l_thigh_twist_01_driven_grp/l_thigh_twist_01_anim
    m_Weight: 1
  - m_Path: rig_grp/master_anim_space_switcher_follow/master_anim_space_switcher/master_anim/offset_anim/ctrl_rig/leg_sys_grp/leg_group_r
    m_Weight: 1
  - m_Path: rig_grp/master_anim_space_switcher_follow/master_anim_space_switcher/master_anim/offset_anim/ctrl_rig/leg_sys_grp/leg_group_r/calf_r_roll_grp
    m_Weight: 1
  - m_Path: rig_grp/master_anim_space_switcher_follow/master_anim_space_switcher/master_anim/offset_anim/ctrl_rig/leg_sys_grp/leg_group_r/calf_r_roll_grp/calf_r_twist_joint
    m_Weight: 1
  - m_Path: rig_grp/master_anim_space_switcher_follow/master_anim_space_switcher/master_anim/offset_anim/ctrl_rig/leg_sys_grp/leg_group_r/calf_r_roll_grp/calf_r_twist_joint/calf_r_twist_mod
    m_Weight: 1
  - m_Path: rig_grp/master_anim_space_switcher_follow/master_anim_space_switcher/master_anim/offset_anim/ctrl_rig/leg_sys_grp/leg_group_r/calf_r_roll_grp/calf_r_twist_joint/calf_r_twist_mod/calf_r_twist_anim_grp
    m_Weight: 1
  - m_Path: rig_grp/master_anim_space_switcher_follow/master_anim_space_switcher/master_anim/offset_anim/ctrl_rig/leg_sys_grp/leg_group_r/calf_r_roll_grp/calf_r_twist_joint/calf_r_twist_mod/calf_r_twist_anim_grp/calf_r_twist_anim
    m_Weight: 1
  - m_Path: rig_grp/master_anim_space_switcher_follow/master_anim_space_switcher/master_anim/offset_anim/ctrl_rig/leg_sys_grp/leg_group_r/ik_leg_grp_r
    m_Weight: 1
  - m_Path: rig_grp/master_anim_space_switcher_follow/master_anim_space_switcher/master_anim/offset_anim/ctrl_rig/leg_sys_grp/leg_group_r/ik_leg_grp_r/ik_foot_anim_r_space_switcher_follow
    m_Weight: 1
  - m_Path: rig_grp/master_anim_space_switcher_follow/master_anim_space_switcher/master_anim/offset_anim/ctrl_rig/leg_sys_grp/leg_group_r/ik_leg_grp_r/ik_foot_anim_r_space_switcher_follow/ik_foot_anim_r_space_switcher
    m_Weight: 1
  - m_Path: rig_grp/master_anim_space_switcher_follow/master_anim_space_switcher/master_anim/offset_anim/ctrl_rig/leg_sys_grp/leg_group_r/ik_leg_grp_r/ik_foot_anim_r_space_switcher_follow/ik_foot_anim_r_space_switcher/ik_foot_anim_grp_r
    m_Weight: 1
  - m_Path: rig_grp/master_anim_space_switcher_follow/master_anim_space_switcher/master_anim/offset_anim/ctrl_rig/leg_sys_grp/leg_group_r/ik_leg_grp_r/ik_foot_anim_r_space_switcher_follow/ik_foot_anim_r_space_switcher/ik_foot_anim_grp_r/ik_foot_anim_r
    m_Weight: 1
  - m_Path: rig_grp/master_anim_space_switcher_follow/master_anim_space_switcher/master_anim/offset_anim/ctrl_rig/leg_sys_grp/leg_group_r/leg_ctrl_grp_r
    m_Weight: 1
  - m_Path: rig_grp/master_anim_space_switcher_follow/master_anim_space_switcher/master_anim/offset_anim/ctrl_rig/leg_sys_grp/leg_group_r/leg_ctrl_grp_r/ik_leg_base_grp_r
    m_Weight: 1
  - m_Path: rig_grp/master_anim_space_switcher_follow/master_anim_space_switcher/master_anim/offset_anim/ctrl_rig/leg_sys_grp/leg_group_r/leg_ctrl_grp_r/ik_leg_end_grp_r
    m_Weight: 1
  - m_Path: rig_grp/master_anim_space_switcher_follow/master_anim_space_switcher/master_anim/offset_anim/ctrl_rig/leg_sys_grp/leg_group_r/leg_joints_grp_r
    m_Weight: 1
  - m_Path: rig_grp/master_anim_space_switcher_follow/master_anim_space_switcher/master_anim/offset_anim/ctrl_rig/leg_sys_grp/leg_group_r/leg_joints_grp_r/fk_leg_thigh_r
    m_Weight: 1
  - m_Path: rig_grp/master_anim_space_switcher_follow/master_anim_space_switcher/master_anim/offset_anim/ctrl_rig/leg_sys_grp/leg_group_r/leg_joints_grp_r/fk_leg_thigh_r/fk_leg_calf_r
    m_Weight: 1
  - m_Path: rig_grp/master_anim_space_switcher_follow/master_anim_space_switcher/master_anim/offset_anim/ctrl_rig/leg_sys_grp/leg_group_r/leg_joints_grp_r/fk_leg_thigh_r/fk_leg_calf_r/fk_leg_foot_r
    m_Weight: 1
  - m_Path: rig_grp/master_anim_space_switcher_follow/master_anim_space_switcher/master_anim/offset_anim/ctrl_rig/leg_sys_grp/leg_group_r/leg_joints_grp_r/fk_thigh_r_orient_grp
    m_Weight: 1
  - m_Path: rig_grp/master_anim_space_switcher_follow/master_anim_space_switcher/master_anim/offset_anim/ctrl_rig/leg_sys_grp/leg_group_r/leg_joints_grp_r/fk_thigh_r_orient_grp/fk_thigh_r_anim_grp
    m_Weight: 1
  - m_Path: rig_grp/master_anim_space_switcher_follow/master_anim_space_switcher/master_anim/offset_anim/ctrl_rig/leg_sys_grp/leg_group_r/leg_joints_grp_r/fk_thigh_r_orient_grp/fk_thigh_r_anim_grp/fk_thigh_r_anim
    m_Weight: 1
  - m_Path: rig_grp/master_anim_space_switcher_follow/master_anim_space_switcher/master_anim/offset_anim/ctrl_rig/leg_sys_grp/leg_group_r/leg_joints_grp_r/fk_thigh_r_orient_grp/fk_thigh_r_anim_grp/fk_thigh_r_anim/fk_calf_r_anim_grp
    m_Weight: 1
  - m_Path: rig_grp/master_anim_space_switcher_follow/master_anim_space_switcher/master_anim/offset_anim/ctrl_rig/leg_sys_grp/leg_group_r/leg_joints_grp_r/fk_thigh_r_orient_grp/fk_thigh_r_anim_grp/fk_thigh_r_anim/fk_calf_r_anim_grp/fk_calf_r_anim
    m_Weight: 1
  - m_Path: rig_grp/master_anim_space_switcher_follow/master_anim_space_switcher/master_anim/offset_anim/ctrl_rig/leg_sys_grp/leg_group_r/leg_joints_grp_r/fk_thigh_r_orient_grp/fk_thigh_r_anim_grp/fk_thigh_r_anim/fk_calf_r_anim_grp/fk_calf_r_anim/fk_foot_r_anim_grp
    m_Weight: 1
  - m_Path: rig_grp/master_anim_space_switcher_follow/master_anim_space_switcher/master_anim/offset_anim/ctrl_rig/leg_sys_grp/leg_group_r/leg_joints_grp_r/fk_thigh_r_orient_grp/fk_thigh_r_anim_grp/fk_thigh_r_anim/fk_calf_r_anim_grp/fk_calf_r_anim/fk_foot_r_anim_grp/fk_foot_r_anim
    m_Weight: 1
  - m_Path: rig_grp/master_anim_space_switcher_follow/master_anim_space_switcher/master_anim/offset_anim/ctrl_rig/leg_sys_grp/leg_group_r/leg_joints_grp_r/ik_leg_thigh_r
    m_Weight: 1
  - m_Path: rig_grp/master_anim_space_switcher_follow/master_anim_space_switcher/master_anim/offset_anim/ctrl_rig/leg_sys_grp/leg_group_r/leg_joints_grp_r/ik_leg_thigh_r/ik_leg_calf_r
    m_Weight: 1
  - m_Path: rig_grp/master_anim_space_switcher_follow/master_anim_space_switcher/master_anim/offset_anim/ctrl_rig/leg_sys_grp/leg_group_r/leg_joints_grp_r/ik_leg_thigh_r/ik_leg_calf_r/ik_leg_foot_r
    m_Weight: 1
  - m_Path: rig_grp/master_anim_space_switcher_follow/master_anim_space_switcher/master_anim/offset_anim/ctrl_rig/leg_sys_grp/leg_group_r/leg_joints_grp_r/ikFix_leg_thigh_r
    m_Weight: 1
  - m_Path: rig_grp/master_anim_space_switcher_follow/master_anim_space_switcher/master_anim/offset_anim/ctrl_rig/leg_sys_grp/leg_group_r/leg_joints_grp_r/ikFix_leg_thigh_r/ikFix_leg_calf_r
    m_Weight: 1
  - m_Path: rig_grp/master_anim_space_switcher_follow/master_anim_space_switcher/master_anim/offset_anim/ctrl_rig/leg_sys_grp/leg_group_r/leg_joints_grp_r/ikFix_leg_thigh_r/ikFix_leg_calf_r/ikFix_leg_foot_r
    m_Weight: 1
  - m_Path: rig_grp/master_anim_space_switcher_follow/master_anim_space_switcher/master_anim/offset_anim/ctrl_rig/leg_sys_grp/leg_group_r/leg_joints_grp_r/result_leg_thigh_r
    m_Weight: 1
  - m_Path: rig_grp/master_anim_space_switcher_follow/master_anim_space_switcher/master_anim/offset_anim/ctrl_rig/leg_sys_grp/leg_group_r/leg_joints_grp_r/result_leg_thigh_r/result_leg_calf_r
    m_Weight: 1
  - m_Path: rig_grp/master_anim_space_switcher_follow/master_anim_space_switcher/master_anim/offset_anim/ctrl_rig/leg_sys_grp/leg_group_r/leg_joints_grp_r/result_leg_thigh_r/result_leg_calf_r/result_leg_foot_r
    m_Weight: 1
  - m_Path: rig_grp/master_anim_space_switcher_follow/master_anim_space_switcher/master_anim/offset_anim/ctrl_rig/leg_sys_grp/leg_group_r/thigh_twist_grp_r
    m_Weight: 1
  - m_Path: rig_grp/master_anim_space_switcher_follow/master_anim_space_switcher/master_anim/offset_anim/ctrl_rig/leg_sys_grp/leg_group_r/thigh_twist_grp_r/r_thigh_twist_01_anim_grp
    m_Weight: 1
  - m_Path: rig_grp/master_anim_space_switcher_follow/master_anim_space_switcher/master_anim/offset_anim/ctrl_rig/leg_sys_grp/leg_group_r/thigh_twist_grp_r/r_thigh_twist_01_anim_grp/r_thigh_twist_01_driven_grp
    m_Weight: 1
  - m_Path: rig_grp/master_anim_space_switcher_follow/master_anim_space_switcher/master_anim/offset_anim/ctrl_rig/leg_sys_grp/leg_group_r/thigh_twist_grp_r/r_thigh_twist_01_anim_grp/r_thigh_twist_01_driven_grp/r_thigh_twist_01_anim
    m_Weight: 1
  - m_Path: rig_grp/master_anim_space_switcher_follow/master_anim_space_switcher/master_anim/offset_anim/ctrl_rig/neck_01_fk_anim_grp
    m_Weight: 1
  - m_Path: rig_grp/master_anim_space_switcher_follow/master_anim_space_switcher/master_anim/offset_anim/ctrl_rig/neck_01_fk_anim_grp/neck_fk_orient_master
    m_Weight: 1
  - m_Path: rig_grp/master_anim_space_switcher_follow/master_anim_space_switcher/master_anim/offset_anim/ctrl_rig/neck_01_fk_anim_grp/neck_fk_orient_master/neck_01_fk_anim
    m_Weight: 1
  - m_Path: rig_grp/master_anim_space_switcher_follow/master_anim_space_switcher/master_anim/offset_anim/ctrl_rig/neck_01_fk_anim_grp/neck_fk_orient_master/neck_01_fk_anim/head_fk_orient_master
    m_Weight: 1
  - m_Path: rig_grp/master_anim_space_switcher_follow/master_anim_space_switcher/master_anim/offset_anim/ctrl_rig/neck_01_fk_anim_grp/neck_fk_orient_master/neck_01_fk_anim/head_fk_orient_master/head_fk_anim_grp
    m_Weight: 1
  - m_Path: rig_grp/master_anim_space_switcher_follow/master_anim_space_switcher/master_anim/offset_anim/ctrl_rig/neck_01_fk_anim_grp/neck_fk_orient_master/neck_01_fk_anim/head_fk_orient_master/head_fk_anim_grp/head_fk_anim
    m_Weight: 1
  - m_Path: rig_grp/master_anim_space_switcher_follow/master_anim_space_switcher/master_anim/root_anim
    m_Weight: 1
  - m_Path: rig_grp/Rig_Settings
    m_Weight: 1
  - m_Path: root
    m_Weight: 0
  - m_Path: root/pelvis
    m_Weight: 0
  - m_Path: root/pelvis/spine_01
    m_Weight: 0
  - m_Path: root/pelvis/spine_01/spine_02
    m_Weight: 0
  - m_Path: root/pelvis/spine_01/spine_02/spine_03
    m_Weight: 1
  - m_Path: root/pelvis/spine_01/spine_02/spine_03/clavicle_l
    m_Weight: 1
  - m_Path: root/pelvis/spine_01/spine_02/spine_03/clavicle_l/upperarm_l
    m_Weight: 1
  - m_Path: root/pelvis/spine_01/spine_02/spine_03/clavicle_l/upperarm_l/lowerarm_l
    m_Weight: 1
  - m_Path: root/pelvis/spine_01/spine_02/spine_03/clavicle_l/upperarm_l/lowerarm_l/hand_l
    m_Weight: 1
  - m_Path: root/pelvis/spine_01/spine_02/spine_03/clavicle_l/upperarm_l/lowerarm_l/hand_l/middle_01_l
    m_Weight: 1
  - m_Path: root/pelvis/spine_01/spine_02/spine_03/clavicle_l/upperarm_l/lowerarm_l/hand_l/middle_01_l/middle_02_l
    m_Weight: 1
  - m_Path: root/pelvis/spine_01/spine_02/spine_03/clavicle_l/upperarm_l/lowerarm_l/hand_l/middle_01_l/middle_02_l/middle_03_l
    m_Weight: 1
  - m_Path: root/pelvis/spine_01/spine_02/spine_03/clavicle_l/upperarm_l/lowerarm_l/hand_l/thumb_01_l
    m_Weight: 1
  - m_Path: root/pelvis/spine_01/spine_02/spine_03/clavicle_l/upperarm_l/lowerarm_l/hand_l/thumb_01_l/thumb_02_l
    m_Weight: 1
  - m_Path: root/pelvis/spine_01/spine_02/spine_03/clavicle_l/upperarm_l/lowerarm_l/hand_l/thumb_01_l/thumb_02_l/thumb_03_l
    m_Weight: 1
  - m_Path: root/pelvis/spine_01/spine_02/spine_03/clavicle_l/upperarm_l/lowerarm_l/lowerarm_twist_01_l
    m_Weight: 1
  - m_Path: root/pelvis/spine_01/spine_02/spine_03/clavicle_l/upperarm_l/upperarm_twist_01_l
    m_Weight: 1
  - m_Path: root/pelvis/spine_01/spine_02/spine_03/clavicle_r
    m_Weight: 1
  - m_Path: root/pelvis/spine_01/spine_02/spine_03/clavicle_r/upperarm_r
    m_Weight: 1
  - m_Path: root/pelvis/spine_01/spine_02/spine_03/clavicle_r/upperarm_r/lowerarm_r
    m_Weight: 1
  - m_Path: root/pelvis/spine_01/spine_02/spine_03/clavicle_r/upperarm_r/lowerarm_r/hand_r
    m_Weight: 1
  - m_Path: root/pelvis/spine_01/spine_02/spine_03/clavicle_r/upperarm_r/lowerarm_r/hand_r/middle_01_r
    m_Weight: 1
  - m_Path: root/pelvis/spine_01/spine_02/spine_03/clavicle_r/upperarm_r/lowerarm_r/hand_r/middle_01_r/middle_02_r
    m_Weight: 1
  - m_Path: root/pelvis/spine_01/spine_02/spine_03/clavicle_r/upperarm_r/lowerarm_r/hand_r/middle_01_r/middle_02_r/middle_03_r
    m_Weight: 1
  - m_Path: root/pelvis/spine_01/spine_02/spine_03/clavicle_r/upperarm_r/lowerarm_r/hand_r/thumb_01_r
    m_Weight: 1
  - m_Path: root/pelvis/spine_01/spine_02/spine_03/clavicle_r/upperarm_r/lowerarm_r/hand_r/thumb_01_r/thumb_02_r
    m_Weight: 1
  - m_Path: root/pelvis/spine_01/spine_02/spine_03/clavicle_r/upperarm_r/lowerarm_r/hand_r/thumb_01_r/thumb_02_r/thumb_03_r
    m_Weight: 1
  - m_Path: root/pelvis/spine_01/spine_02/spine_03/clavicle_r/upperarm_r/lowerarm_r/lowerarm_twist_01_r
    m_Weight: 1
  - m_Path: root/pelvis/spine_01/spine_02/spine_03/clavicle_r/upperarm_r/upperarm_twist_01_r
    m_Weight: 1
  - m_Path: root/pelvis/spine_01/spine_02/spine_03/Gun
    m_Weight: 1
  - m_Path: root/pelvis/spine_01/spine_02/spine_03/neck_01
    m_Weight: 1
  - m_Path: root/pelvis/spine_01/spine_02/spine_03/neck_01/head
    m_Weight: 1
  - m_Path: root/pelvis/thigh_l
    m_Weight: 0
  - m_Path: root/pelvis/thigh_l/calf_l
    m_Weight: 0
  - m_Path: root/pelvis/thigh_l/calf_l/calf_twist_01_l
    m_Weight: 0
  - m_Path: root/pelvis/thigh_l/calf_l/foot_l
    m_Weight: 0
  - m_Path: root/pelvis/thigh_l/thigh_twist_01_l
    m_Weight: 0
  - m_Path: root/pelvis/thigh_r
    m_Weight: 0
  - m_Path: root/pelvis/thigh_r/calf_r
    m_Weight: 0
  - m_Path: root/pelvis/thigh_r/calf_r/calf_twist_01_r
    m_Weight: 0
  - m_Path: root/pelvis/thigh_r/calf_r/foot_r
    m_Weight: 0
  - m_Path: root/pelvis/thigh_r/thigh_twist_01_r
    m_Weight: 0
