%YAML 1.1
%TAG !u! tag:unity3d.com,2011:
--- !u!21 &2100000
Material:
  serializedVersion: 6
  m_ObjectHideFlags: 0
  m_PrefabParentObject: {fileID: 0}
  m_PrefabInternal: {fileID: 0}
  m_Name: bigcannon sphere
  m_Shader: {fileID: 4800000, guid: 193e3f95cda004050a5d162c0bd47afc, type: 3}
  m_ShaderKeywords: 
  m_LightmapFlags: 5
  m_CustomRenderQueue: -1
  stringTagMap: {}
  m_SavedProperties:
    serializedVersion: 2
    m_TexEnvs:
      data:
        first:
          name: _MainTex
        second:
          m_Texture: {fileID: 2800000, guid: 14782175a9fc14d888b23fb6e213653f, type: 3}
          m_Scale: {x: 1, y: 1}
          m_Offset: {x: 0, y: 0}
      data:
        first:
          name: _SecondTex
        second:
          m_Texture: {fileID: 2800000, guid: e6ec694b514ba426b8211ec47ff48e38, type: 3}
          m_Scale: {x: 1, y: 1}
          m_Offset: {x: 0, y: 0}
    m_Floats:
      data:
        first:
          name: _MainTexSpeedX
        second: 0
      data:
        first:
          name: _MainTexSpeedY
        second: 0
      data:
        first:
          name: _MainTexBright
        second: 1
      data:
        first:
          name: _MainTexXTile
        second: 1
      data:
        first:
          name: _MainTexYTile
        second: 1
      data:
        first:
          name: _MainTextBrightPulseSwitch
        second: 0
      data:
        first:
          name: _MainTextBrightPulse
        second: 1
      data:
        first:
          name: _SecondTexSpeedX
        second: 0
      data:
        first:
          name: _SecondTexSpeedY
        second: 0
      data:
        first:
          name: _SecondTexBright
        second: 1
      data:
        first:
          name: _SecondTexXTile
        second: 1
      data:
        first:
          name: _SecondTexYTile
        second: 1
      data:
        first:
          name: _SecondTextBrightPulseSwitch
        second: 0
      data:
        first:
          name: _SecondTextBrightPulse
        second: 1
    m_Colors:
      data:
        first:
          name: _Color
        second: {r: 1, g: 1, b: 1, a: 1}
      data:
        first:
          name: _TintColor
        second: {r: .365517259, g: 1, b: 0, a: 1}
      data:
        first:
          name: _SecondColor
        second: {r: 0, g: .346095413, b: .551470578, a: 1}
