%YAML 1.1
%TAG !u! tag:unity3d.com,2011:
--- !u!21 &2100000
Material:
  serializedVersion: 6
  m_ObjectHideFlags: 0
  m_PrefabParentObject: {fileID: 0}
  m_PrefabInternal: {fileID: 0}
  m_Name: particleTestShader 1
  m_Shader: {fileID: 4800000, guid: f84196209c1ce47b0a90e69910ac4e9f, type: 3}
  m_ShaderKeywords: 
  m_LightmapFlags: 5
  m_CustomRenderQueue: -1
  stringTagMap: {}
  m_SavedProperties:
    serializedVersion: 2
    m_TexEnvs:
      data:
        first:
          name: _MainTex
        second:
          m_Texture: {fileID: 2800000, guid: 4e1880403d23047adac549bdb4dc15c6, type: 3}
          m_Scale: {x: 10, y: 10}
          m_Offset: {x: 0, y: 0}
      data:
        first:
          name: _SecondTex
        second:
          m_Texture: {fileID: 2800000, guid: e6ec694b514ba426b8211ec47ff48e38, type: 3}
          m_Scale: {x: 9, y: 1}
          m_Offset: {x: 90, y: 0}
    m_Floats:
      data:
        first:
          name: _SecondTexSpeed
        second: 1.82142854
      data:
        first:
          name: _SecondTexXOffset
        second: 1.07142854
    m_Colors:
      data:
        first:
          name: _Color
        second: {r: 0, g: 1, b: .420689583, a: 1}
      data:
        first:
          name: _SecondColor
        second: {r: .324137688, g: 0, b: 1, a: 1}
