%YAML 1.1
%TAG !u! tag:unity3d.com,2011:
--- !u!21 &2100000
Material:
  serializedVersion: 6
  m_ObjectHideFlags: 0
  m_PrefabParentObject: {fileID: 0}
  m_PrefabInternal: {fileID: 0}
  m_Name: Rock Dark
  m_Shader: {fileID: 4800000, guid: 92565a219a3c3ca4a859ec7472b2ea07, type: 3}
  m_ShaderKeywords: 
  m_LightmapFlags: 1
  m_CustomRenderQueue: -1
  stringTagMap: {}
  m_SavedProperties:
    serializedVersion: 2
    m_TexEnvs:
      data:
        first:
          name: _MainTex
        second:
          m_Texture: {fileID: 2800000, guid: 2b2a26c150f23ba4994ecd4763a83365, type: 3}
          m_Scale: {x: 1, y: 1}
          m_Offset: {x: 0, y: 0}
      data:
        first:
          name: _DecalTex
        second:
          m_Texture: {fileID: 0}
          m_Scale: {x: 1, y: 1}
          m_Offset: {x: 0, y: 0}
      data:
        first:
          name: _Fill
        second:
          m_Texture: {fileID: 2800000, guid: 7f4aa20fb7a7f05479efc63972153ed4, type: 3}
          m_Scale: {x: 1, y: 1}
          m_Offset: {x: 0, y: 0}
      data:
        first:
          name: _TopEdge
        second:
          m_Texture: {fileID: 2800000, guid: d87e8d14e52dacb40811b4f1db9dd8b0, type: 3}
          m_Scale: {x: 1, y: 1}
          m_Offset: {x: 0, y: 0}
      data:
        first:
          name: _RightEdge
        second:
          m_Texture: {fileID: 2800000, guid: 2ecb8edb0b4634843a79910690170204, type: 3}
          m_Scale: {x: 1, y: 1}
          m_Offset: {x: 0, y: 0}
      data:
        first:
          name: _BottomEdge
        second:
          m_Texture: {fileID: 2800000, guid: e1122e6593f853243bb8786f19e0fc35, type: 3}
          m_Scale: {x: 1, y: 1}
          m_Offset: {x: 0, y: 0}
      data:
        first:
          name: _LeftEdge
        second:
          m_Texture: {fileID: 2800000, guid: 552bc39f112ff67499c4cec10df32d9a, type: 3}
          m_Scale: {x: 1, y: 1}
          m_Offset: {x: 0, y: 0}
      data:
        first:
          name: _TopEdgeShort
        second:
          m_Texture: {fileID: 2800000, guid: b208e74d82ceb44f796b6f8b0131c2ac, type: 3}
          m_Scale: {x: 1, y: 1}
          m_Offset: {x: 0, y: 0}
      data:
        first:
          name: _RightEdgeShort
        second:
          m_Texture: {fileID: 2800000, guid: 2d35b1d9c340742e99ec76a7622d50ff, type: 3}
          m_Scale: {x: 1, y: 1}
          m_Offset: {x: 0, y: 0}
      data:
        first:
          name: _BottomEdgeShort
        second:
          m_Texture: {fileID: 2800000, guid: 3cda16c2d43ef46ad8158ac33cbc16c9, type: 3}
          m_Scale: {x: 1, y: 1}
          m_Offset: {x: 0, y: 0}
      data:
        first:
          name: _LeftEdgeShort
        second:
          m_Texture: {fileID: 2800000, guid: 4324b33255827471daf5bc6cc48213c9, type: 3}
          m_Scale: {x: 1, y: 1}
          m_Offset: {x: 0, y: 0}
      data:
        first:
          name: _TopLeftCornerOut
        second:
          m_Texture: {fileID: 2800000, guid: 2b2a26c150f23ba4994ecd4763a83365, type: 3}
          m_Scale: {x: 1, y: 1}
          m_Offset: {x: 0, y: 0}
      data:
        first:
          name: _TopRightCornerOut
        second:
          m_Texture: {fileID: 2800000, guid: 5d849f5d82a853e4e905b1b330c9d8f5, type: 3}
          m_Scale: {x: 1, y: 1}
          m_Offset: {x: 0, y: 0}
      data:
        first:
          name: _BottomLeftCornerOut
        second:
          m_Texture: {fileID: 2800000, guid: 07e068e0976285a4b992a61aa00ffa3d, type: 3}
          m_Scale: {x: 1, y: 1}
          m_Offset: {x: 0, y: 0}
      data:
        first:
          name: _BottomRightCornerOut
        second:
          m_Texture: {fileID: 2800000, guid: 363e43d8e4d58f242a9fb90865817f34, type: 3}
          m_Scale: {x: 1, y: 1}
          m_Offset: {x: 0, y: 0}
      data:
        first:
          name: _TopLeftCornerIn
        second:
          m_Texture: {fileID: 2800000, guid: 1e325d48dd82d8f4585b6f61140a0aed, type: 3}
          m_Scale: {x: 1, y: 1}
          m_Offset: {x: 0, y: 0}
      data:
        first:
          name: _TopRightCornerIn
        second:
          m_Texture: {fileID: 2800000, guid: abafff04d575c7f46974b52be8c3ae0a, type: 3}
          m_Scale: {x: 1, y: 1}
          m_Offset: {x: 0, y: 0}
      data:
        first:
          name: _BottomLeftCornerIn
        second:
          m_Texture: {fileID: 2800000, guid: e05ac849d361daa48812660b27ba5204, type: 3}
          m_Scale: {x: 1, y: 1}
          m_Offset: {x: 0, y: 0}
      data:
        first:
          name: _BottomRightCornerIn
        second:
          m_Texture: {fileID: 2800000, guid: 2cd75729c5304f44b87c09c431eb704c, type: 3}
          m_Scale: {x: 1, y: 1}
          m_Offset: {x: 0, y: 0}
      data:
        first:
          name: _TopEgde
        second:
          m_Texture: {fileID: 2800000, guid: d87e8d14e52dacb40811b4f1db9dd8b0, type: 3}
          m_Scale: {x: 1, y: 1}
          m_Offset: {x: 0, y: 0}
      data:
        first:
          name: _RightEgde
        second:
          m_Texture: {fileID: 2800000, guid: 2ecb8edb0b4634843a79910690170204, type: 3}
          m_Scale: {x: 1, y: 1}
          m_Offset: {x: 0, y: 0}
      data:
        first:
          name: _BottomEgde
        second:
          m_Texture: {fileID: 2800000, guid: e1122e6593f853243bb8786f19e0fc35, type: 3}
          m_Scale: {x: 1, y: 1}
          m_Offset: {x: 0, y: 0}
      data:
        first:
          name: _LeftEgde
        second:
          m_Texture: {fileID: 2800000, guid: 552bc39f112ff67499c4cec10df32d9a, type: 3}
          m_Scale: {x: 1, y: 1}
          m_Offset: {x: 0, y: 0}
      data:
        first:
          name: _Illum
        second:
          m_Texture: {fileID: 0}
          m_Scale: {x: 1, y: 1}
          m_Offset: {x: 0, y: 0}
    m_Floats:
      data:
        first:
          name: _Cutoff
        second: .5
      data:
        first:
          name: _Shininess
        second: .699999988
      data:
        first:
          name: _Contrast
        second: 1
      data:
        first:
          name: _Brightness
        second: 0
    m_Colors:
      data:
        first:
          name: _Color
        second: {r: 1, g: 1, b: 1, a: 1}
      data:
        first:
          name: _SpecColor
        second: {r: 1, g: 1, b: 1, a: 1}
      data:
        first:
          name: _Emission
        second: {r: 0, g: 0, b: 0, a: 0}
      data:
        first:
          name: _Fog
        second: {r: .10980393, g: .0235294141, b: .0588235334, a: 1}
      data:
        first:
          name: _Tint
        second: {r: .697000027, g: .662898004, b: .655877054, a: 1}
      data:
        first:
          name: _Highlight
        second: {r: 1, g: 1, b: 1, a: 1}
      data:
        first:
          name: _Shadow
        second: {r: 0, g: 0, b: 0, a: 1}
